<?xml version="1.0" encoding="utf-8"?>
<!-- Generator: Adobe Illustrator 21.0.0, SVG Export Plug-In . SVG Version: 6.00 Build 0)  -->
<svg version="1.1" id="_x31_c583786-1cd6-40ce-afeb-07b76e9a1360"
	 xmlns="http://www.w3.org/2000/svg" xmlns:xlink="http://www.w3.org/1999/xlink" x="0px" y="0px" viewBox="0 0 60 60"
	 style="enable-background:new 0 0 60 60;" xml:space="preserve">
<style type="text/css">
	.st0{fill:#FFFFFF;}
</style>
<title>plache icones services</title>
<path class="st0" d="M27.8,22.4l1.1,5.7c0.1,0.5,0.5,0.9,1.1,0.9h7.5c0.5,0,1-0.4,1.1-0.9l0.5-2.3h0.7c0.7,0,1.3-0.3,1.8-0.7
	c0.7-0.7,1.2-1.5,1.5-2.4c0-0.1,0.1-0.2,0.1-0.3c0-0.1,0.1-0.1,0.1-0.2c0.1-0.2,0.1-0.3,0.2-0.5c0-0.1,0.1-0.2,0.1-0.3l0.1-0.5
	c0-0.1,0-0.1,0-0.2c0-0.1,0-0.1,0-0.2c0-0.1,0-0.1,0-0.2c0-0.2,0-0.4,0-0.6c0-0.6-0.2-1.2-0.6-1.6c-0.3-0.3-0.6-0.4-1-0.4h-1.4
	l0.3-1.5c0.1-0.4-0.2-0.8-0.6-0.9c-0.1,0-0.1,0-0.2,0H27.4c-0.2,0-0.5,0.1-0.6,0.3c-0.1,0.2-0.2,0.4-0.2,0.7l0.9,4.5L27.8,22.4z
	 M40.4,18.7H42c0.1,0,0.3,0.1,0.4,0.2c0.2,0.3,0.3,0.6,0.3,0.9c0,0.2,0,0.4,0,0.6c0,0.1,0,0.1,0,0.2c0,0.1,0,0.1,0,0.2
	c0,0.1,0,0.1,0,0.1c0,0.2-0.1,0.4-0.1,0.6c0,0.1,0,0.2-0.1,0.2c-0.1,0.3-0.2,0.5-0.3,0.8c-0.1,0.1-0.1,0.3-0.2,0.4L41.7,23l-0.2,0.3
	c-0.1,0.1-0.1,0.2-0.1,0.3c-0.1,0.1-0.1,0.2-0.2,0.3c0,0.1-0.1,0.1-0.1,0.2c-0.1,0.1-0.2,0.2-0.3,0.3c-0.3,0.3-0.8,0.4-1.2,0.4h-0.5
	l0.5-2.4l0.3-1.7L40.4,18.7z M39.9,16.2l-0.7,3.7H28.3l-0.7-3.7H39.9z"/>
<path class="st0" d="M49.8,25.1c-0.2-0.3-0.4-0.4-0.7-0.4h-0.3c-0.1,0-0.1,0-0.2,0c-0.1,0-0.1,0-0.2,0c-0.1,0-0.1,0-0.2,0
	c-0.1,0-0.1,0.1-0.2,0.1c-0.1,0-0.1,0-0.1,0.1c-0.1,0-0.1,0.1-0.2,0.1c0,0-0.1,0-0.1,0.1c0,0,0,0,0,0c0,0,0,0,0,0
	c-0.1,0-0.1,0.1-0.2,0.1l-0.2,0.1c-0.1,0.1-0.1,0.1-0.2,0.2c-0.1,0-0.1,0.1-0.1,0.1c-0.1,0.1-0.2,0.2-0.2,0.2L46.6,26
	c-0.1,0.1-0.2,0.3-0.3,0.4c-0.1,0.1-0.2,0.2-0.3,0.4c0,0.1-0.1,0.1-0.1,0.2L45.8,27c-0.8,1.2-1.7,2.3-2.8,3.3
	c-0.2,0.1-0.3,0.2-0.5,0.4c-0.1,0.1-0.1,0.1-0.2,0.2c-0.1,0.1-0.2,0.2-0.3,0.3c-0.1,0.1-0.1,0.1-0.2,0.2l-0.3,0.3
	c-0.1,0.1-0.1,0.1-0.2,0.2c-0.1,0.1-0.2,0.2-0.3,0.2c-0.1,0.1-0.1,0.1-0.2,0.2l-0.3,0.2c-0.1,0.1-0.1,0.1-0.2,0.2
	c-0.1,0.1-0.1,0.1-0.2,0.2c0,0-0.1,0.1-0.1,0.1c0,0-0.1,0.1-0.2,0.1c0,0-0.1,0.1-0.1,0.1L39.7,33c-0.2,0.2-0.2,0.5-0.1,0.7
	c0,0,0,0,0,0c0,0.1,0.1,0.1,0.2,0.1c0,0,0,0,0.1,0c0,0,0.1,0,0.1,0h0c0,0,0.1,0,0.1,0c0,0,0,0,0.1,0c0.1,0,0.1-0.1,0.2-0.1
	c0,0,0.1,0,0.1-0.1c0,0,0,0,0.1-0.1c0.1,0,0.1-0.1,0.2-0.1c0,0,0.1-0.1,0.1-0.1c0.1-0.1,0.1-0.1,0.2-0.2c0.1-0.1,0.1-0.1,0.2-0.1
	s0.1-0.1,0.2-0.2c0,0,0,0,0.1-0.1c0.1-0.1,0.2-0.2,0.3-0.2c0.1-0.1,0.2-0.1,0.2-0.2c0.1-0.1,0.2-0.2,0.3-0.3
	c0.1-0.1,0.2-0.1,0.2-0.2c0.1-0.1,0.2-0.2,0.4-0.3c0.1-0.1,0.1-0.1,0.2-0.2c0.2-0.1,0.4-0.3,0.5-0.4c0.2-0.1,0.4-0.3,0.6-0.5
	l0.1-0.1c0.2-0.2,0.4-0.4,0.5-0.6l0,0c0.2-0.2,0.4-0.4,0.5-0.6c0-0.1,0.1-0.1,0.1-0.2c0.2-0.2,0.3-0.4,0.5-0.6v0
	c0.2-0.3,0.5-0.6,0.7-0.9c0.2-0.2,0.3-0.4,0.4-0.6c0.1-0.1,0.1-0.2,0.2-0.3c0,0,0,0,0.1-0.1c0.1-0.1,0.1-0.2,0.2-0.2l0,0l0,0
	c0.1-0.1,0.2-0.2,0.3-0.2c0,0,0.1,0,0.1-0.1c0.1-0.1,0.2-0.1,0.2-0.2l0.1-0.1c0.1,0,0.2-0.1,0.2-0.1c0,0,0.1,0,0.1,0
	c0.1,0,0.2-0.1,0.3-0.1h0.1c0,0.3,0,0.6-0.1,0.8l-0.3,0.7c-0.1,0.2-0.2,0.5-0.4,0.7c-0.1,0.2-0.2,0.4-0.3,0.6c0,0.1-0.1,0.2-0.1,0.3
	c-0.1,0.2-0.2,0.3-0.2,0.5c-0.5,1.1-1.1,2.4-1.6,3.4c0,0,0,0.1,0,0.1c0,0.1-0.1,0.1-0.1,0.2c0,0.1-0.1,0.2-0.1,0.2c0,0,0,0,0,0.1
	c-0.1,0.1-0.1,0.3-0.2,0.4c0,0.1-0.1,0.1-0.1,0.2c0,0.1-0.1,0.2-0.1,0.2c0,0,0,0.1,0,0.1c0,0.1-0.1,0.2-0.2,0.3c0,0,0,0,0,0.1
	c0,0.1-0.1,0.1-0.1,0.2c0,0,0,0,0,0.1c0,0.1-0.1,0.1-0.1,0.2c-0.3,0.5-0.5,1-0.9,1.4c-1.1,1.1-2.3,2.2-3.6,3.1
	c-3.1,2.6-6.3,4.3-7.4,4.3h-0.1c-0.2,0-0.3,0-0.5-0.1c0,0-0.1,0-0.1,0c-0.2-0.1-0.4-0.1-0.6-0.2c0,0-0.1,0-0.1,0
	c-0.2-0.1-0.5-0.2-0.7-0.3c0,0,0,0-0.1,0c-0.3-0.1-0.6-0.3-0.9-0.4c-0.7-0.4-1.7-0.9-2.8-1.4c-3.3-1.5-5.6-2.4-7.5-2.4h-0.5
	c-0.1,0-0.1,0-0.2,0c-0.1,0-0.1,0-0.2,0s-0.1,0-0.2,0c-0.1,0-0.1,0-0.2,0c-0.1,0-0.2,0-0.2,0s-0.1,0-0.2,0c-0.1,0-0.1,0-0.2,0
	c-0.1,0-0.1,0-0.2,0s-0.2,0-0.2,0.1c-0.1,0-0.1,0-0.2,0c-0.1,0-0.1,0-0.2,0.1c-0.1,0-0.1,0-0.2,0l-0.2,0.1c-0.1,0-0.1,0-0.2,0.1
	c-0.1,0-0.1,0-0.2,0.1l-0.2,0.1c-0.1,0-0.1,0-0.2,0.1c0,0-0.1,0-0.1,0c-0.1,0-0.1,0-0.2,0.1c0,0-0.1,0-0.1,0l-0.2,0.1
	c0,0-0.1,0-0.1,0c0,0-0.1,0-0.1,0.1c0,0-0.1,0-0.1,0c0,0-0.1,0-0.1,0c0,0-0.1,0-0.1,0c0,0-0.1,0-0.1,0.1c-0.3,0.1-0.4,0.4-0.3,0.7
	c0,0.1,0.1,0.2,0.2,0.2c0,0,0,0,0.1,0c0.1,0.1,0.2,0.1,0.3,0.1c0.1,0,0.1,0,0.2,0c0,0,0.1,0,0.1,0c0,0,0,0,0,0c0,0,0,0,0.1,0
	c0,0,0.1,0,0.1,0s0.1,0,0.1,0s0.1,0,0.1,0s0.1,0,0.1,0c0,0,0.1,0,0.1,0c0,0,0.1,0,0.1,0c0.1,0,0.1,0,0.2-0.1c0,0,0.1,0,0.1,0
	c0.1,0,0.1,0,0.2-0.1c0,0,0.1,0,0.1,0c0.1,0,0.1,0,0.2-0.1c0.1,0,0.1,0,0.1,0l0.2-0.1c0.1,0,0.1,0,0.2,0l0.2-0.1c0.1,0,0.1,0,0.2,0
	l0.2-0.1c0.1,0,0.1,0,0.2,0c0.1,0,0.1,0,0.2,0c0.1,0,0.1,0,0.2,0c0.1,0,0.1,0,0.2,0c0.1,0,0.1,0,0.2,0c0.1,0,0.1,0,0.2,0
	s0.1,0,0.2,0c0.1,0,0.1,0,0.2,0h0.4c1.3,0.1,2.9,0.5,7.1,2.3c1.1,0.5,1.9,0.9,2.7,1.3c0.3,0.2,0.6,0.3,0.9,0.5l0.2,0.1
	c0.1,0,0.1,0.1,0.2,0.1c0.2,0.1,0.4,0.2,0.6,0.3c0,0,0.1,0,0.1,0c0.2,0.1,0.4,0.1,0.6,0.2c0.1,0,0.1,0,0.2,0.1
	c0.2,0.1,0.4,0.1,0.6,0.1H33c0.1,0,0.2,0,0.4-0.1c0,0,0.1,0,0.1,0c0.1,0,0.2,0,0.3-0.1c0.1,0,0.1,0,0.1-0.1c0.1-0.1,0.3-0.1,0.4-0.2
	c0,0,0,0,0.1,0c0.2-0.1,0.4-0.2,0.5-0.2c0,0,0,0,0.1,0c0,0,0.1,0,0.1-0.1c0.2-0.1,0.3-0.1,0.4-0.2c0.1,0,0.1-0.1,0.2-0.1
	c0.2-0.1,0.4-0.2,0.6-0.3c0,0,0,0,0.1,0c0.2-0.1,0.4-0.3,0.7-0.4c0.1,0,0.1-0.1,0.2-0.1c0.2-0.1,0.3-0.2,0.5-0.3
	c0.1-0.1,0.1-0.1,0.2-0.1c0.2-0.1,0.4-0.3,0.7-0.4c0,0,0,0,0,0c0.2-0.2,0.5-0.3,0.7-0.5l0.2-0.2c0.2-0.1,0.4-0.3,0.5-0.4l0.2-0.2
	c0.2-0.2,0.5-0.4,0.7-0.5c1.3-1,2.6-2.1,3.8-3.3c0.4-0.5,0.7-1,1-1.6c0-0.1,0.1-0.1,0.1-0.2c0.1-0.1,0.1-0.2,0.2-0.4c0,0,0,0,0-0.1
	c0.1-0.1,0.1-0.3,0.2-0.4l0.2-0.3l0.2-0.3c0-0.1,0.1-0.1,0.1-0.1c0.1-0.2,0.2-0.4,0.3-0.6c0,0,0,0,0,0c0,0,0,0,0,0
	c0,0,0-0.1,0.1-0.1c0.2-0.3,0.3-0.7,0.5-1.1c0,0,0,0,0-0.1c0.1-0.2,0.2-0.4,0.3-0.5c0-0.1,0.1-0.1,0.1-0.2c0.2-0.5,0.4-0.9,0.6-1.3
	c0-0.1,0.1-0.2,0.1-0.2c0-0.1,0.1-0.1,0.1-0.2c0.1-0.2,0.2-0.3,0.2-0.5c0-0.1,0.1-0.2,0.1-0.3c0.2-0.3,0.3-0.6,0.4-0.8
	c0-0.1,0.1-0.2,0.2-0.3v0c0.1-0.2,0.1-0.3,0.2-0.3l0-0.1C50,26.4,50.1,25.7,49.8,25.1z"/>
<path class="st0" d="M19.7,27.5c1,0.1,2,0.4,2.9,0.7c1.2,0.5,2.3,1.3,3.2,2.2c0.8,0.7,2,1.7,3.1,2.6c1.7,1.3,3.2,2.6,3.2,2.6
	l0.2,0.2l0.2-0.1c2.5-0.5,7-0.9,8.2,0.1c0.2,0.1,0.3,0.3,0.3,0.5c0,0.5-0.2,1-0.6,1.4C39,39,35.7,39,34.7,39c-0.7,0-1.4-0.2-2.1-0.4
	c-1.2-0.4-2.9-1-7.5-1.1c-0.3,0-0.5,0.2-0.5,0.5c0,0.3,0.2,0.5,0.5,0.5c0,0,0,0,0,0c4.4,0.1,6,0.6,7.2,1c0.8,0.3,1.5,0.5,2.4,0.5
	h0.4c1.6,0,4.4-0.2,5.9-1.6c0.6-0.5,0.9-1.3,0.9-2.1c0-0.5-0.2-1-0.6-1.3c-0.9-0.7-2.6-1-5.3-0.8c-1.2,0.1-2.3,0.2-3.4,0.4
	c-0.3-0.2-1.1-0.8-2.1-1.6c-1.3-1.1-3-2.4-4-3.4c-1.1-1.1-2.4-2-3.9-2.5c-0.9-0.3-1.8-0.5-2.8-0.6c-3.2-0.5-8.4,1.6-9.4,2
	c-0.1,0-0.2,0.1-0.2,0.1C10,28.7,9.9,29,10,29.2c0.1,0.1,0.2,0.2,0.3,0.3c0,0,0.1,0,0.1,0c0.1,0,0.2,0,0.3,0
	C10.8,29.5,16.5,27,19.7,27.5z"/>
</svg>
