<?xml version="1.0" encoding="utf-8"?>
<!-- Generator: Adobe Illustrator 19.2.0, SVG Export Plug-In . SVG Version: 6.00 Build 0)  -->
<svg version="1.1" id="Calque_1" xmlns="http://www.w3.org/2000/svg" xmlns:xlink="http://www.w3.org/1999/xlink" x="0px" y="0px"
	 viewBox="0 0 27 30.3" style="enable-background:new 0 0 27 30.3;" xml:space="preserve">
<g>
	<path d="M11.9,3.3c0.9,0,1.5-0.6,1.5-1.7C13.5,0.7,12.9,0,12,0c-0.9,0-1.5,0.7-1.5,1.7C10.5,2.6,11,3.3,11.9,3.3z M12,0.5
		c0.6,0,0.9,0.6,0.9,1.2c0,0.7-0.3,1.2-0.9,1.2c-0.6,0-0.9-0.5-0.9-1.2C11.1,1,11.4,0.5,12,0.5z"/>
	<path d="M14.5,3.3l0-1.1c0-0.5,0-1,0-1.4l0,0c0.2,0.4,0.4,0.8,0.6,1.1l0.8,1.4h0.6l0-3.2H16v1.1c0,0.5,0,0.9,0.1,1.3h0
		c-0.1-0.3-0.3-0.7-0.5-1.1l-0.8-1.4l-0.7,0l0,3.2H14.5z"/>
	<path d="M4.2,26.8L4.2,26.8C4.1,27,4.1,27.2,4,27.4l-0.2,0.7l0.7,0l-0.2-0.7C4.3,27.2,4.2,27,4.2,26.8z"/>
	<path d="M13.4,26.8c-0.5,0-0.8,0.5-0.8,1.1c0,0.6,0.3,1.1,0.8,1.1c0.5,0,0.8-0.5,0.8-1.1C14.1,27.3,13.9,26.8,13.4,26.8z"/>
	<path d="M17.7,26.8c-0.5,0-0.8,0.5-0.8,1.1c0,0.6,0.3,1.1,0.8,1.1c0.5,0,0.8-0.5,0.8-1.1C18.5,27.3,18.2,26.8,17.7,26.8z"/>
	<path d="M27,25.5l-27,0l0,4.8l27,0L27,25.5z M4.9,29.5l-0.2-0.8H3.7l-0.2,0.8H2.8l1-3.2h1l1,3.2H4.9z M7.4,29.5
		c-0.8,0-1.3-0.4-1.3-1.5l0-1.8h0.7l0,1.8c0,0.6,0.2,0.8,0.6,0.8c0.4,0,0.6-0.3,0.6-0.8l0-1.8h0.7l0,1.8C8.7,29,8.2,29.5,7.4,29.5z
		 M11.6,26.8h-0.9l0,2.6H10l0-2.6l-0.9,0l0-0.6l2.5,0V26.8z M13.3,29.5c-1,0-1.5-0.7-1.5-1.6c0-1,0.6-1.7,1.6-1.7
		c1,0,1.5,0.7,1.5,1.6C14.9,28.9,14.3,29.5,13.3,29.5z M17.7,29.5c-1,0-1.5-0.7-1.5-1.6c0-1,0.6-1.7,1.6-1.7c1,0,1.5,0.7,1.5,1.6
		C19.3,28.9,18.6,29.5,17.7,29.5z M21.7,26.8h-1.2l0,0.7h1.2v0.6l-1.2,0l0,1.3h-0.7l0-3.2l2,0V26.8z M24.2,27.6v0.6l-1.2,0v1.3h-0.7
		l0-3.2l2,0l0,0.6H23v0.7H24.2z"/>
	<path d="M13.5,22.4L13.5,22.4c2.2,0,4.2-0.8,5.7-2.4c1.5-1.5,2.4-3.5,2.4-5.7c0-4.4-3.6-8.1-8.1-8.1c-4.4,0-8.1,3.6-8.1,8.1
		C5.4,18.8,9.1,22.4,13.5,22.4z M13.5,7.1c4,0,7.3,3.3,7.3,7.3c0,1.9-0.8,3.8-2.1,5.2c-1.4,1.4-3.2,2.1-5.2,2.1l0,0.4v-0.4
		c-4,0-7.3-3.3-7.3-7.3C6.2,10.4,9.5,7.1,13.5,7.1z"/>
	<path d="M25.2,15.7c-0.2,2.1-0.9,4-2.1,5.7c-0.1,0.2-0.1,0.4,0.1,0.5c0.1,0,0.1,0.1,0.2,0.1c0.1,0,0.2-0.1,0.3-0.2
		c1.2-1.8,2-3.9,2.2-6.1c0.3-3.5-0.9-7-3.3-9.6c-0.1-0.2-0.4-0.2-0.5,0c-0.2,0.1-0.2,0.4,0,0.5C24.3,9.1,25.5,12.4,25.2,15.7z"/>
	<path d="M13.5,19.4L13.5,19.4c0.5,0,1-0.4,1-1l0-8.2c0-0.5-0.4-1-1-1h0c-0.5,0-1,0.4-1,1l0,8.2C12.5,19,13,19.4,13.5,19.4z"/>
	<circle cx="21.1" cy="5.3" r="0.9"/>
	<circle cx="22.4" cy="23.3" r="0.9"/>
</g>
</svg>
