<?xml version="1.0" encoding="utf-8"?>
<!-- Generator: Adobe Illustrator 19.2.0, SVG Export Plug-In . SVG Version: 6.00 Build 0)  -->
<svg version="1.1" id="Calque_1" xmlns="http://www.w3.org/2000/svg" xmlns:xlink="http://www.w3.org/1999/xlink" x="0px" y="0px"
	 viewBox="0 0 24.1 21" style="enable-background:new 0 0 24.1 21;" xml:space="preserve">
<g>
	<path d="M12.4,11.1c-3.1,0-5.6-2.5-5.6-5.6C6.8,2.5,9.3,0,12.4,0S18,2.5,18,5.6C18,8.6,15.5,11.1,12.4,11.1z"/>
	<path d="M13.5,13.9c0,0.3,0.4,3.6,0.6,4.9c0.1,0.8,0.2,1.3-0.1,1.7c-0.3,0.4-0.9,0.5-2,0.5c-0.7,0-1.3-0.2-1.6-0.6
		c-0.5-0.7-0.2-1.6-0.2-1.6l0,0c0,0,0.5-3.4,0.8-4.9c0,0,0.3-2,1.3-2C13.3,11.9,13.5,13.1,13.5,13.9 M13.5,13.9L13.5,13.9L13.5,13.9
		z"/>
	<path d="M23.8,21h-8.4c-0.1,0-0.2-0.1-0.2-0.1c0-0.1,0-0.2,0-0.3c2.1-2.9,1.5-8.5,1.5-8.6c0-0.1,0-0.2,0.1-0.2
		c0.1-0.1,0.2-0.1,0.2,0c6.8,2.5,7,8.9,7,9c0,0.1,0,0.1-0.1,0.2S23.9,21,23.8,21z"/>
	<path d="M8.6,21H0.3c-0.1,0-0.1,0-0.2-0.1c0,0-0.1-0.1-0.1-0.2c0-0.1,0.2-6.4,7-9c0.1,0,0.2,0,0.2,0c0.1,0.1,0.1,0.1,0.1,0.2
		c0,0.1-0.6,5.7,1.5,8.6c0.1,0.1,0.1,0.2,0,0.3C8.8,21,8.7,21,8.6,21z"/>
</g>
</svg>
