<?xml version="1.0" encoding="utf-8"?>
<!-- Generator: Adobe Illustrator 19.2.1, SVG Export Plug-In . SVG Version: 6.00 Build 0)  -->
<svg version="1.1" id="Calque_1" xmlns="http://www.w3.org/2000/svg" xmlns:xlink="http://www.w3.org/1999/xlink" x="0px" y="0px"
	 viewBox="-235.2 351.3 60.5 65.4" style="enable-background:new -235.2 351.3 60.5 65.4;" xml:space="preserve">
<path d="M-174.8,360.5h-8.7v3.6h-5.3v-3.6h-32.5v3.6h-5.3v-3.6h-8.7l0,0v51c0,2.9,2.3,5.2,5.2,5.2h50.1c2.9,0,5.2-2.3,5.2-5.2
	L-174.8,360.5z M-215.7,414.8H-230c-1.8,0-3.3-1.5-3.3-3.3V401h17.6V414.8z M-215.7,399.1h-17.6v-13.8h17.6V399.1z M-215.7,383.4
	h-17.6c0,0,0.1-13.7,0.1-13.8h17.6V383.4z M-196.2,414.8h-17.7V401h17.7V414.8z M-196.2,399.1h-17.7v-13.8h17.7V399.1z
	 M-196.2,383.4h-17.7v-13.8h17.7V383.4z M-176.6,411.5c0,1.8-1.5,3.3-3.3,3.3h-14.3V401h17.7V411.5z M-176.6,399.1h-17.7v-13.8h17.7
	V399.1z M-194.3,383.4v-13.8h17.6c0,0.1,0.1,13.8,0.1,13.8H-194.3z"/>
<rect x="-225" y="351.3" width="2.2" height="11.2"/>
<rect x="-187.1" y="351.3" width="2.2" height="11.2"/>
</svg>
