<?xml version="1.0" encoding="utf-8"?>
<!-- Generator: Adobe Illustrator 19.2.1, SVG Export Plug-In . SVG Version: 6.00 Build 0)  -->
<svg version="1.1" id="Layer_1" xmlns="http://www.w3.org/2000/svg" xmlns:xlink="http://www.w3.org/1999/xlink" x="0px" y="0px"
	 viewBox="0 0 28 22" style="enable-background:new 0 0 28 22;" xml:space="preserve">
<style type="text/css">
	.st0{fill:none;}
	.st1{fill:#231F20;}
</style>
<title>INTENSITY</title>
<g>
	<rect x="7" y="1" class="st0" width="20" height="20"/>
	<path class="st1" d="M6,0v22h22V0H6z M27,21H7V1h20V21z"/>
	<rect x="3" y="2" class="st1" width="1" height="18"/>
	<rect y="4" class="st1" width="1" height="14"/>
</g>
</svg>
