<?xml version="1.0" encoding="UTF-8"?>
<svg width="30px" height="21px" viewBox="0 0 30 21" version="1.1" xmlns="http://www.w3.org/2000/svg" xmlns:xlink="http://www.w3.org/1999/xlink">
    <!-- Generator: Sketch 40.3 (33839) - http://www.bohemiancoding.com/sketch -->
    <title>Group 16</title>
    <desc>Created with Sketch.</desc>
    <defs></defs>
    <g id="PDP-MACHINES" stroke="none" stroke-width="1" fill="none" fill-rule="evenodd">
        <g id="MACHINE-PDP-DESKTOP-(lifestyle)" transform="translate(-921.000000, -771.000000)" fill="#000000">
            <g id="Group-13" transform="translate(921.000000, 336.000000)">
                <g id="Group-8" transform="translate(0.000000, 369.000000)">
                    <g id="Group-4" transform="translate(0.000000, 66.000000)">
                        <g id="Group-16">
                            <path d="M6.9345,2.849 L6.9345,0.722 L23.4795,0.723 L23.4795,2.419 L24.7175,2.418 C24.9275,2.42 25.0755,2.486 25.2265,2.648 C25.3155,2.744 25.3995,2.877 25.4725,3.04 L19.5485,3.043 C18.9555,2.859 18.2085,2.64 17.9925,2.64 C17.6045,2.64 17.2905,2.954 17.2905,3.342 C17.2905,3.73 17.6045,4.045 17.9925,4.045 C18.1645,4.045 18.6875,3.909 19.5475,3.641 L25.6605,3.638 C25.6765,3.705 25.6935,3.774 25.7065,3.848 C25.7925,4.301 25.8365,4.853 25.8365,5.488 C25.8365,5.916 25.8155,6.294 25.7975,6.539 C25.7935,6.599 25.7905,6.652 25.7865,6.699 L25.1435,6.699 L24.7815,5.621 L23.4795,5.622 L23.4845,8.294 L22.3685,8.294 L22.3725,15.314 L27.4135,15.311 L23.4675,19.441 L6.9105,19.448 L6.9025,2.849 L6.9345,2.849 Z M6.3695,19.448 L1.2445,19.451 L1.2365,3.378 L0.7235,3.378 L0.7225,2.852 L6.3615,2.849 L6.3695,19.448 Z M22.9675,8.892 L24.0815,8.89 L24.0785,6.221 L24.3525,6.219 L24.6975,7.252 L24.7135,7.297 L26.3275,7.297 L26.3575,7.018 C26.3805,6.796 26.4335,6.201 26.4335,5.488 C26.4315,4.778 26.3755,4.156 26.2685,3.638 L27.4835,3.637 C27.6485,3.637 27.7835,3.502 27.7835,3.338 C27.7835,3.173 27.6485,3.038 27.4835,3.038 L26.1135,3.04 C25.9945,2.702 25.8475,2.441 25.6645,2.24 C25.4165,1.969 25.0845,1.821 24.7185,1.821 L24.0785,1.821 L24.0785,0.125 L22.9625,0.126 L22.9625,0.117 L6.4025,0.126 L6.3365,0.126 L6.3375,2.252 L0.1255,2.254 L0.1255,3.977 L0.6395,3.977 L0.6465,20.05 L23.7225,20.039 L28.7085,14.824 L28.8155,14.713 L22.9675,14.715 L22.9675,8.892 Z" id="Fill-1"></path>
                            <path d="M7.0273,2.9741 L7.0353,19.3241 L23.4143,19.3161 L27.1223,15.4361 L22.2483,15.4381 L22.2443,8.1691 L23.3593,8.1691 L23.3543,5.4971 L24.8723,5.4951 L25.2333,6.5741 L25.6703,6.5741 L25.6733,6.5311 C25.6873,6.3391 25.7123,5.9511 25.7123,5.4881 C25.7123,4.8601 25.6693,4.3161 25.5833,3.8711 C25.5773,3.8331 25.5693,3.7981 25.5613,3.7631 L19.5663,3.7661 C18.4013,4.1281 18.1103,4.1701 17.9923,4.1701 C17.5363,4.1701 17.1653,3.7991 17.1653,3.3421 C17.1653,2.8861 17.5363,2.5151 17.9923,2.5151 C18.0603,2.5151 18.2663,2.5151 19.5673,2.9181 L25.2673,2.9141 C25.2253,2.8431 25.1803,2.7821 25.1343,2.7331 C25.0073,2.5971 24.8943,2.5451 24.7163,2.5431 L23.3543,2.5431 L23.3543,0.8481 L7.0593,0.8471 L7.0593,2.9741 L7.0273,2.9741 Z M6.7853,19.5741 L6.7773,2.7241 L6.8093,2.7241 L6.8093,0.5971 L23.6043,0.5981 L23.6043,2.2931 L24.7173,2.2931 C24.9643,2.2961 25.1443,2.3761 25.3183,2.5621 C25.4173,2.6691 25.5073,2.8121 25.5873,2.9881 L25.6663,3.1641 L19.5113,3.1621 C18.3973,2.8171 18.0813,2.7651 17.9923,2.7651 C17.6733,2.7651 17.4153,3.0241 17.4153,3.3421 C17.4153,3.6611 17.6733,3.9201 17.9923,3.9201 C18.1003,3.9201 18.4523,3.8511 19.5093,3.5211 L19.5473,3.5161 L25.7593,3.5131 L25.7833,3.6091 C25.8003,3.6861 25.8163,3.7541 25.8293,3.8271 C25.9173,4.2851 25.9623,4.8451 25.9623,5.4881 C25.9623,5.9591 25.9373,6.3541 25.9233,6.5481 L25.9013,6.8241 L25.0533,6.8241 L24.6923,5.7451 L23.6043,5.7471 L23.6093,8.4191 L22.4943,8.4191 L22.4983,15.1881 L27.7063,15.1861 L23.5213,19.5661 L6.7853,19.5741 Z M0.8483,3.2531 L1.3623,3.2531 L1.3703,19.3261 L6.2453,19.3241 L6.2373,2.9741 L0.8473,2.9771 L0.8483,3.2531 Z M1.1203,19.5761 L1.1123,3.5031 L0.5983,3.5031 L0.5973,2.7271 L6.4873,2.7241 L6.4953,19.5741 L1.1203,19.5761 Z M0.2503,3.8511 L0.7643,3.8511 L0.7713,19.9241 L23.6683,19.9141 L28.5223,14.8371 L22.8413,14.8401 L22.8413,8.7671 L23.9563,8.7651 L23.9543,6.0961 L24.4423,6.0941 L24.8033,7.1721 L26.2153,7.1721 L26.2333,7.0051 C26.2513,6.8371 26.3083,6.2311 26.3083,5.4881 C26.3063,4.7881 26.2523,4.1741 26.1463,3.6631 L26.1153,3.5131 L27.4833,3.5121 C27.5803,3.5121 27.6583,3.4341 27.6583,3.3381 C27.6583,3.2421 27.5803,3.1631 27.4833,3.1631 L26.0243,3.1641 L25.9953,3.0811 C25.8823,2.7631 25.7443,2.5151 25.5723,2.3231 C25.3493,2.0801 25.0463,1.9461 24.7183,1.9461 L23.9543,1.9461 L23.9543,0.2501 L22.8373,0.2501 L22.8373,0.2421 L6.4613,0.2501 L6.4633,2.3771 L0.2503,2.3791 L0.2503,3.8511 Z M0.5213,20.1741 L0.5143,4.1011 L0.0003,4.1011 L0.0003,2.1291 L6.2133,2.1271 L6.2113,9.99999993e-05 L24.2043,9.99999993e-05 L24.2043,1.6961 L24.7183,1.6961 C25.1163,1.6961 25.4853,1.8591 25.7563,2.1551 C25.9363,2.3551 26.0823,2.6031 26.2003,2.9141 L27.4833,2.9131 C27.7173,2.9131 27.9083,3.1041 27.9083,3.3381 C27.9083,3.5721 27.7173,3.7621 27.4833,3.7621 L26.4203,3.7631 C26.5103,4.2581 26.5563,4.8371 26.5583,5.4871 C26.5583,6.2441 26.5003,6.8601 26.4813,7.0311 L26.4403,7.4221 L24.6253,7.4221 L24.2623,6.3451 L24.2043,6.3451 L24.2063,9.0151 L23.0913,9.0171 L23.0913,14.5901 L29.1113,14.5871 L28.7983,14.9111 L23.7753,20.1641 L0.5213,20.1741 Z" id="Fill-3"></path>
                            <path d="M14.1044788,10.2937365 C14.1008567,10.3452127 14.1284754,10.3943703 14.173752,10.417094 C14.2199341,10.4402815 14.2747187,10.4328615 14.312751,10.398544 L17.5192367,7.50938031 C17.543686,7.48665655 17.55908,7.45465778 17.5613438,7.42080402 C17.5631549,7.3864865 17.5518358,7.35356024 17.530103,7.32759023 L14.7089209,4.04377511 C14.6749634,4.00435634 14.6215371,3.98998009 14.573544,4.00713885 C14.5246453,4.0242976 14.4920462,4.06974512 14.4893296,4.12168514 L14.4390726,5.09648805 C14.20454,5.06031553 13.9659326,5.04222928 13.7273251,5.04222928 C11.1203011,5.04222928 9,7.21397143 9,9.88331754 C9,10.0275439 9.01041361,10.2445789 9.02535487,10.4365715 C9.0552374,10.8117454 9.08195057,10.8395704 9.11319139,10.8711055 C9.13854626,10.8970755 9.17114538,10.910988 9.20555556,10.910988 C9.23996574,10.910988 9.27347039,10.8970755 9.29746697,10.8715692 C10.7531082,9.38107609 12.2101078,9.06850845 13.1763095,9.06850845 C13.6585048,9.06850845 14.015284,9.14780974 14.173752,9.19047476 L14.1044788,10.2937365 Z" id="Fill-1"></path>
                            <path d="M17.5423557,10.4744164 C17.5133787,10.0992425 17.4862128,10.0714175 17.454972,10.0394188 C17.4305226,10.0139125 17.3974708,10 17.362155,10 C17.3277449,10 17.2951457,10.0134488 17.2702436,10.038955 C15.8159607,11.5220281 14.3621305,11.8336683 13.3981926,11.8336683 C12.9105641,11.8336683 12.5510683,11.7534395 12.3916948,11.7093832 L12.4632318,10.6065853 C12.4664011,10.5546452 12.4387824,10.5054877 12.3935059,10.482764 C12.3482293,10.4595764 12.2929919,10.4669964 12.2549596,10.501314 L9.042588,13.3835214 C8.99051996,13.4303602 8.98553954,13.5115165 9.03126886,13.5653115 L11.8452068,16.8546916 C11.8701089,16.8834441 11.9049718,16.8987479 11.9398348,16.8987479 C11.9538705,16.8987479 11.9674535,16.8964291 11.9810364,16.8913279 C12.0290296,16.8746329 12.0625342,16.8291853 12.0652508,16.7772453 L12.1173189,15.8024424 C12.3518514,15.8395424 12.5904589,15.8580924 12.8299719,15.8585562 L12.8399327,15.8585562 C14.0999792,15.8585562 15.286225,15.3563147 16.1781731,14.4445819 C17.070574,13.5323852 17.5636357,12.318751 17.5658995,11.0276704 C17.5668051,10.8839079 17.5568442,10.666409 17.5423557,10.4744164" id="Fill-4"></path>
                        </g>
                    </g>
                </g>
            </g>
        </g>
    </g>
</svg>