<?xml version="1.0" encoding="utf-8"?>
<!-- Generator: Adobe Illustrator 19.2.0, SVG Export Plug-In . SVG Version: 6.00 Build 0)  -->
<svg version="1.1" id="Calque_1" xmlns="http://www.w3.org/2000/svg" xmlns:xlink="http://www.w3.org/1999/xlink" x="0px" y="0px"
	 viewBox="0 0 79.9 14.5" style="enable-background:new 0 0 79.9 14.5;" xml:space="preserve">
<g>
	<path d="M72.6,2.3L72.6,2.3L72.6,2.3c-1.2,0-4.9,0.4-4.9,4.9c0,4.8,4,5,4.8,5h0c0.5,0,2.3-0.1,3.5-1.3c0.9-0.9,1.3-2.1,1.3-3.7
		C77.4,2.6,73.8,2.3,72.6,2.3z M74.1,10.3c-0.3,0.2-0.7,0.5-1.4,0.5h-0.1c-0.7,0-1.1-0.3-1.4-0.5c-0.7-0.6-1-1.7-1-3.3
		c0-3,1.5-3.5,2.4-3.5h0.1c0.9,0,2.4,0.5,2.4,3.5C75.1,8.6,74.8,9.7,74.1,10.3z"/>
	<path d="M14.8,13.7c-0.9-0.3-2.2-1.3-2.9-2.2C11,10.4,8.7,7.4,8.7,7.4C8.3,7,8,6.5,7.6,6c-1-1.4-2.1-2.9-3.3-3.8v10h1.4V7l0,0
		c0.4,0.5,0.8,1,1.2,1.5c0.6,0.8,1.3,1.7,1.8,2.3c0.4,0.4,1.3,1.5,1.6,1.7c1.3,1.2,3.3,1.9,5.3,1.9c0.9,0,1.7-0.1,2.5-0.4v-0.1
		c-0.3,0.1-0.7,0.1-1,0.1C16.4,14.2,15.6,14,14.8,13.7z"/>
	<path d="M6.2,3c0.9,1.1,3.3,4.1,3.3,4.1c0.3,0.4,0.7,0.9,1,1.4c1,1.4,2.1,2.9,3.3,3.8v-10h-1.4v5.2l0,0c-0.4-0.5-0.8-1-1.2-1.5
		C10.6,5.1,10,4.3,9.4,3.7C9.1,3.2,8,2.2,7.7,1.9C6.5,0.7,4.4,0,2.4,0C1.6,0,0.8,0.1,0,0.4v0.1c0.3-0.1,0.7-0.1,1-0.1
		c0.8,0,1.5,0.2,2.3,0.4C4.2,1.1,5.5,2.1,6.2,3z"/>
	<path d="M59.1,7.4c-1.1-1-2.4-1.2-3.3-1.8c-0.7-0.5-0.6-1.2-0.3-1.6C56.3,3,58,3.4,58.4,3.5c0.5,0.1,0.7,0.2,1.2,0.5V2.9
		c-2-0.6-5.1-1.1-6.3,0.9C52.8,4.6,52.7,6,54,6.9c1.3,1,3.6,1.5,3.8,2.4c0.2,0.5,0,0.9-0.3,1.2c-1.2,1.1-3.1,0.4-4.3-0.1v1.2
		c1.3,0.6,3,0.7,4.4,0.4c1-0.2,2.1-1.1,2.3-2.2C60.1,8.7,59.8,8,59.1,7.4z"/>
	<path d="M66.3,7.4c-1.1-1-2.4-1.2-3.3-1.8c-0.7-0.5-0.6-1.2-0.3-1.6c0.8-0.9,2.4-0.5,2.8-0.4c0.5,0.1,0.7,0.2,1.2,0.5V2.9
		c-2-0.6-5.1-1.1-6.3,0.9C60,4.6,59.9,6,61.2,6.9c1.3,1,3.6,1.5,3.8,2.4c0.2,0.5,0,0.9-0.3,1.2c-1.2,1.1-3.1,0.4-4.3-0.1v1.2
		c1.3,0.6,2.9,0.7,4.4,0.4c1-0.2,2.1-1.1,2.3-2.2C67.3,8.7,67,8,66.3,7.4z"/>
	<polygon points="46.1,12 52.4,12 52.4,10.8 48.3,10.8 48.3,7.7 51.6,7.7 51.6,6.6 48.3,6.6 48.3,3.7 52.4,3.7 52.4,2.6 46.1,2.6 	
		"/>
	<path d="M28.1,7.4c-1.1-1-2.4-1.2-3.3-1.8c-0.7-0.5-0.6-1.2-0.3-1.6c0.8-0.9,2.4-0.5,2.8-0.4c0.5,0.1,0.7,0.2,1.2,0.5V2.9
		c-2-0.6-5.1-1.1-6.3,0.9C21.8,4.6,21.6,6,23,6.9c1.3,1,3.6,1.5,3.8,2.4c0.2,0.5,0,0.9-0.3,1.2c-1.2,1.1-3.1,0.4-4.3-0.1v1.2
		c1.3,0.6,3,0.7,4.4,0.4c1-0.2,2.1-1.1,2.3-2.2C29,8.7,28.8,8,28.1,7.4z"/>
	<polygon points="15.1,12 21.4,12 21.4,10.8 17.3,10.8 17.3,7.7 20.6,7.7 20.6,6.6 17.3,6.6 17.3,3.7 21.4,3.7 21.4,2.6 15.1,2.6 	
		"/>
	<path d="M34,2.5h-4.1v9.6H32c0,0,0-0.2,0-0.6l0-2.9c0,0,3.3,0.2,4.3-1.1c0.7-0.8,0.8-2.2,0.5-3.2C36.3,3,35.2,2.5,34,2.5z
		 M34.4,6.8c-0.6,0.6-1.6,0.6-2.4,0.5V3.7c0,0,1.8-0.4,2.5,0.6C34.9,4.8,34.9,6.1,34.4,6.8z"/>
	<path d="M44,7.4c0.7-0.8,0.8-2.1,0.5-3.2c-0.4-1.1-1.5-1.7-2.7-1.7h-4.1V12h2.1l0-3.5c0,0,0.4,0,1,0L43,12h2.4l-2.4-3.9
		C43.3,7.9,43.8,7.7,44,7.4z M42.3,6.8c-0.6,0.6-1.6,0.5-2.4,0.5V3.8c0,0,1.7-0.4,2.5,0.6C42.7,4.9,42.8,6.1,42.3,6.8z"/>
	<path d="M78.7,9.9c-0.7,0-1.2,0.5-1.2,1.2c0,0.7,0.6,1.2,1.2,1.2c0.6,0,1.2-0.5,1.2-1.2C79.9,10.4,79.3,9.9,78.7,9.9z M78.7,12.1
		c-0.6,0-1.1-0.5-1.1-1.1c0-0.6,0.5-1.1,1.1-1.1c0.6,0,1.1,0.5,1.1,1.1C79.7,11.7,79.2,12.1,78.7,12.1z"/>
	<path d="M79,11.1c0,0,0.2-0.1,0.2-0.3c0-0.2-0.2-0.4-0.4-0.4h-0.6v1.3h0.2v-0.5h0.4c0.2,0,0.3,0.1,0.3,0.3c0,0.1,0,0.2,0,0.2h0.2
		c-0.1-0.1-0.1-0.2-0.1-0.4C79.2,11.1,79.1,11.1,79,11.1z M78.7,11h-0.4v-0.4h0.4c0.1,0,0.2,0,0.2,0.2C79,10.9,78.9,11,78.7,11z"/>
</g>
</svg>
