<?xml version="1.0" encoding="utf-8"?>
<!-- Generator: Adobe Illustrator 17.0.1, SVG Export Plug-In . SVG Version: 6.00 Build 0)  -->
<!DOCTYPE svg PUBLIC "-//W3C//DTD SVG 1.1//EN" "http://www.w3.org/Graphics/SVG/1.1/DTD/svg11.dtd">
<svg version="1.1" xmlns="http://www.w3.org/2000/svg" xmlns:xlink="http://www.w3.org/1999/xlink" x="0px" y="0px"
	 width="144.567px" height="144.567px" viewBox="0 0 144.567 144.567" enable-background="new 0 0 144.567 144.567"
	 xml:space="preserve">
<g id="time" display="none">
	<g display="inline">
		<g>
			
				<ellipse fill="none" stroke="#000000" stroke-width="4.25" stroke-linecap="round" stroke-linejoin="round" stroke-miterlimit="10" cx="72.824" cy="73.415" rx="63.041" ry="62.631"/>
		</g>
	</g>
	
		<path display="inline" fill-rule="evenodd" clip-rule="evenodd" fill="none" stroke="#000000" stroke-width="4.25" stroke-linecap="round" stroke-linejoin="round" stroke-miterlimit="10" d="
		M71.168,34.271v40.929h29.236"/>
</g>
<g id="personnes" display="none">
	<path display="inline" fill="#000000" stroke="#000000" stroke-width="0.25" stroke-miterlimit="10" d="M1.499,136.888
		c1.082,0.272,2.19-0.353,2.477-1.418c4.165-15.424,21.099-19.423,31.219-21.814c2.536-0.6,4.538-1.071,5.84-1.63
		c11.526-4.968,15.287-12.952,16.41-18.78c0.137-0.701-0.118-1.426-0.665-1.897c-6.002-5.144-11.068-12.86-14.262-21.739
		c-0.091-0.256-0.231-0.485-0.415-0.685c-4.229-4.56-6.652-9.38-6.652-13.222c0-2.242,0.856-3.747,2.775-4.885
		c0.585-0.349,0.954-0.963,0.983-1.638c0.883-20.453,15.559-36.548,33.558-36.654c0.022,0,0.413,0.028,0.435,0.028
		c18.087,0.251,32.669,16.69,33.192,37.427c0.016,0.571,0.276,1.111,0.719,1.48c1.266,1.063,1.856,2.413,1.856,4.242
		c0,3.213-1.726,7.169-4.858,11.129c-0.15,0.188-0.265,0.404-0.34,0.634c-3.237,10.179-9.044,19.167-15.931,24.664
		c-0.583,0.467-0.859,1.211-0.719,1.938c1.124,5.826,4.882,13.811,16.41,18.782c1.365,0.588,3.48,1.042,6.16,1.619
		c10.017,2.152,26.784,5.756,30.899,21.002c0.241,0.895,1.058,1.485,1.951,1.485c0.174,0,0.35-0.024,0.525-0.067
		c1.078-0.29,1.719-1.386,1.43-2.46c-4.754-17.609-23.745-21.693-33.948-23.884c-2.366-0.509-4.409-0.947-5.406-1.379
		c-7.523-3.242-12.158-8.185-13.795-14.711c6.983-5.954,12.83-15.134,16.169-25.435c3.547-4.574,5.496-9.291,5.496-13.315
		c0-2.685-0.875-4.923-2.605-6.675c-0.956-22.496-17.133-40.21-37.207-40.496l-0.605-0.008C52.889,8.63,36.645,25.877,35.225,47.98
		c-2.534,1.847-3.818,4.439-3.818,7.723c0,4.746,2.708,10.426,7.442,15.635c3.27,8.922,8.344,16.761,14.382,22.25
		c-1.63,6.55-6.269,11.509-13.807,14.753c-0.973,0.425-2.917,0.883-5.165,1.412c-10.276,2.426-29.399,6.941-34.189,24.676
		C-0.219,135.503,0.421,136.598,1.499,136.888z"/>
</g>
<g id="difficult" display="none">
	<g display="inline">
		<g>
			
				<path fill="none" stroke="#000000" stroke-width="4.25" stroke-linecap="round" stroke-linejoin="round" stroke-miterlimit="10" d="
				M128.161,21.171C120.809,8.793,107.327,2.98,98.048,8.189c-9.279,5.208-10.841,19.465-3.49,31.842
				c7.351,12.379,20.834,18.193,30.113,12.984C133.95,47.807,135.512,33.551,128.161,21.171z"/>
		</g>
	</g>
	
		<path display="inline" fill-rule="evenodd" clip-rule="evenodd" fill="none" stroke="#000000" stroke-width="4" stroke-linecap="round" stroke-linejoin="round" stroke-miterlimit="10" d="
		M52.988,77.64c-9.433-13.605-23.692-34.172-23.692-34.172"/>
	
		<path display="inline" fill-rule="evenodd" clip-rule="evenodd" fill="none" stroke="#000000" stroke-width="4" stroke-linecap="round" stroke-linejoin="round" stroke-miterlimit="10" d="
		M121.298,44.033l-19.877-28.874"/>
	
		<path display="inline" fill-rule="evenodd" clip-rule="evenodd" fill="none" stroke="#000000" stroke-width="4" stroke-linecap="round" stroke-linejoin="round" stroke-miterlimit="10" d="
		M60.414,120.678l32.438-46.724"/>
	
		<path display="inline" fill-rule="evenodd" clip-rule="evenodd" fill="none" stroke="#000000" stroke-width="4.25" stroke-miterlimit="10" d="
		M54.911,135.21c-15.143-8.426-17.693-31.495-5.696-51.525c11.998-20.03,33.999-29.436,49.143-21.009
		c15.142,8.426,17.693,31.497,5.695,51.526C92.055,134.232,70.053,143.638,54.911,135.21z"/>
	
		<path display="inline" fill-rule="evenodd" clip-rule="evenodd" fill="none" stroke="#000000" stroke-width="4.25" stroke-miterlimit="10" d="
		M75.989,60.8c-1.051-2.614-2.337-5.216-3.864-7.768c-11.775-19.684-33.37-28.93-48.233-20.646
		C9.03,40.666,6.526,63.338,18.302,83.022c5.843,9.768,14.104,16.966,22.761,20.727"/>
</g>
<g id="hot" display="none">
	<g display="inline">
		<g>
			<path fill="none" stroke="#000000" stroke-width="4" stroke-linecap="round" stroke-linejoin="round" stroke-miterlimit="10" d="
				M106.68,58.001H26.496c-1.08,0-1.956,0.865-1.956,1.932l15.646,81.136c0,1.066,0.876,1.932,1.956,1.932h48.893
				c1.08,0,1.956-0.866,1.956-1.932l15.646-81.136C108.636,58.865,107.761,58.001,106.68,58.001z"/>
		</g>
	</g>
	
		<path display="inline" fill-rule="evenodd" clip-rule="evenodd" fill="none" stroke="#000000" stroke-width="4" stroke-miterlimit="10" d="
		M104.149,75.307c0,0,9.51,0,14.726,0c5.215,0,5.522,2.777,5.522,11.11c0,8.333-7.976,28.701-14.725,31.478
		c-6.749,2.778-11.658,1.852-14.725,1.852"/>
	
		<path display="inline" fill-rule="evenodd" clip-rule="evenodd" fill="none" stroke="#000000" stroke-width="4" stroke-miterlimit="10" d="
		M87.993,51.728c0-13.089-10.783-13.826-10.783-24.453c0-10.629,10.783-12.183,10.783-23.547"/>
	
		<path display="inline" fill-rule="evenodd" clip-rule="evenodd" fill="none" stroke="#000000" stroke-width="4" stroke-miterlimit="10" d="
		M67.251,51.728c0-13.089-10.783-13.826-10.783-24.453c0-10.629,10.783-12.183,10.783-23.547"/>
	
		<path display="inline" fill-rule="evenodd" clip-rule="evenodd" fill="none" stroke="#000000" stroke-width="4" stroke-miterlimit="10" d="
		M46.251,51.728c0-13.089-10.783-13.826-10.783-24.453c0-10.629,10.783-12.183,10.783-23.547"/>
</g>
<g id="hcold" display="none">
	<g display="inline">
		<g>
			<path fill="none" stroke="#000000" stroke-width="4" stroke-linecap="round" stroke-linejoin="round" stroke-miterlimit="10" d="
				M106.68,58.001H26.496c-1.08,0-1.956,0.865-1.956,1.932l15.646,81.136c0,1.066,0.876,1.932,1.956,1.932h48.893
				c1.08,0,1.956-0.866,1.956-1.932l15.646-81.136C108.636,58.865,107.761,58.001,106.68,58.001z"/>
		</g>
	</g>
	<path display="inline" fill-rule="evenodd" clip-rule="evenodd" fill="#000000" d="M86.186,49.084l-0.048,3.417h-4.025l0.042-5.824
		l-12.856-7.837v13.662h-4.032v-13.58L52.12,46.833l0.042,5.668H48.12l-0.031-3.147l-5.205,3.147h-4.725
		c-0.328-0.953-0.018-2.003,0.852-2.536l7.154-4.396l-6.247-3.898c-0.936-0.587-1.229-1.852-0.689-2.904
		c0.514-1.011,1.779-1.297,2.76-0.693l8.172,5.089L63.27,35.17l-13.111-7.912l-8.172,5.081c-0.322,0.204-0.654,0.311-1.053,0.311
		c-0.763,0-1.323-0.336-1.707-0.996c-0.597-1.02-0.291-2.406,0.689-2.903l6.247-3.939l-7.154-4.356
		c-0.987-0.603-1.266-1.851-0.727-2.911c0.515-1.004,1.736-1.363,2.724-0.76l7.082,4.282l0.073-7.421
		c0.011-1.183,0.944-2.137,1.997-2.137h0.073c1.126,0,2.07,1.027,1.961,2.137l-0.072,9.867l13.147,7.986V15.75l-8.317-4.936
		c-0.977-0.578-1.33-1.859-0.763-2.903c0.559-1.02,1.692-1.346,2.688-0.766l6.392,3.751v-8.76C65.268,0.954,66.139,0,67.265,0
		c1.126,0,2.034,0.954,2.034,2.137v8.678l6.173-3.669c0.993-0.588,2.157-0.278,2.724,0.766c0.559,1.028,0.147,2.341-0.799,2.903
		l-8.099,4.861v15.905l12.856-7.839l-0.072-10.096c-0.008-1.11,0.872-2.137,1.998-2.137c1.126,0,1.98,0.954,1.997,2.137l0.108,7.65
		l7.264-4.437c0.971-0.595,2.245-0.245,2.761,0.766c0.539,1.052,0.215,2.333-0.727,2.905l-7.227,4.396l6.102,3.825
		c0.981,0.498,1.271,1.867,0.727,2.903c-0.473,0.652-1.09,0.996-1.78,0.996c-0.364,0-0.69-0.115-0.945-0.311l-8.136-5.008
		L71.297,35.17l12.929,7.92l8.136-5.016c0.931-0.57,2.156-0.351,2.724,0.693c0.558,1.019,0.254,2.407-0.727,2.904l-6.102,3.825
		l7.227,4.396c0.854,0.517,1.238,1.642,0.86,2.609h-4.616L86.186,49.084z"/>
	
		<path display="inline" fill-rule="evenodd" clip-rule="evenodd" fill="none" stroke="#000000" stroke-width="4" stroke-miterlimit="10" d="
		M104.149,75.307c0,0,9.51,0,14.726,0c5.215,0,5.522,2.777,5.522,11.11c0,8.333-7.976,28.701-14.725,31.478
		c-6.749,2.778-11.658,1.852-14.725,1.852"/>
</g>
<g id="lungo" display="none">
	
		<path display="inline" fill-rule="evenodd" clip-rule="evenodd" fill="none" stroke="#000000" stroke-width="4" stroke-miterlimit="10" d="
		M19.892,25.461h93.637c1.261,0,2.284,1.018,2.284,2.274l-18.27,95.492c0,1.256-1.023,2.274-2.284,2.274H38.163
		c-1.261,0-2.284-1.018-2.284-2.274L17.608,27.734C17.608,26.479,18.631,25.461,19.892,25.461z"/>
	<g display="inline">
		<g>
			<path fill="none" stroke="#000000" stroke-width="4" stroke-miterlimit="10" d="M127.769,45.829c-6.09,0-15.196,0-15.196,0
				l-10.248,52.395c3.547,0.173,8.445,0.322,14.696-2.271c7.881-3.269,17.196-27.241,17.196-37.048
				C134.218,49.098,133.86,45.829,127.769,45.829z"/>
		</g>
	</g>
	<path display="inline" fill="#000000" d="M112.605,44.5l-15.063,78.726c0,1.256-1.023,2.274-2.284,2.274H38.163
		c-1.261,0-2.284-1.018-2.284-2.274L20.816,44.5H112.605z"/>
</g>
<g id="expresso" display="none">
	<g display="inline">
		<g>
			<path fill="none" stroke="#000000" stroke-width="4" stroke-miterlimit="10" d="M102.339,48.5H30.228
				c-0.971,0-1.759,0.783-1.759,1.75l14.07,73.5c0,0.967,0.787,1.75,1.759,1.75h43.97c0.971,0,1.759-0.783,1.759-1.75l14.07-73.5
				C104.098,49.283,103.311,48.5,102.339,48.5z"/>
		</g>
	</g>
	
		<path display="inline" fill-rule="evenodd" clip-rule="evenodd" fill="none" stroke="#000000" stroke-width="4" stroke-miterlimit="10" d="
		M100.063,64.178c0,0,8.553,0,13.243,0c4.69,0,4.966,2.516,4.966,10.064c0,7.549-7.173,26-13.243,28.516
		c-6.07,2.517-10.484,1.677-13.243,1.677"/>
	<path display="inline" fill-rule="evenodd" clip-rule="evenodd" fill="#000000" d="M99.456,74.5l-9.428,49.25
		c0,0.967-0.788,1.75-1.759,1.75h-43.97c-0.971,0-1.759-0.783-1.759-1.75L33.111,74.5H99.456z"/>
</g>
<g id="ristretto">
	<g>
		<g>
			<path fill="none" stroke="#000000" stroke-width="4" stroke-miterlimit="10" d="M102.529,48.5H30.417
				c-0.971,0-1.759,0.783-1.759,1.75l14.07,73.5c0,0.967,0.787,1.75,1.759,1.75h43.97c0.971,0,1.759-0.783,1.759-1.75l14.07-73.5
				C104.287,49.283,103.5,48.5,102.529,48.5z"/>
		</g>
	</g>
	<path fill-rule="evenodd" clip-rule="evenodd" fill="none" stroke="#000000" stroke-width="4" stroke-miterlimit="10" d="
		M100.253,64.178c0,0,8.553,0,13.243,0c4.69,0,4.966,2.516,4.966,10.064c0,7.549-7.173,26-13.243,28.516
		c-6.07,2.517-10.484,1.677-13.243,1.677"/>
	<path fill-rule="evenodd" clip-rule="evenodd" fill="#000000" d="M94.668,100.5l-4.451,23.25c0,0.967-0.788,1.75-1.759,1.75h-43.97
		c-0.971,0-1.759-0.783-1.759-1.75l-4.451-23.25H94.668z"/>
</g>
</svg>
