<?xml version="1.0" encoding="utf-8"?>
<!-- Generator: Adobe Illustrator 19.2.0, SVG Export Plug-In . SVG Version: 6.00 Build 0)  -->
<svg version="1.1" id="Calque_1" xmlns="http://www.w3.org/2000/svg" xmlns:xlink="http://www.w3.org/1999/xlink" x="0px" y="0px"
	 viewBox="0 0 17.3 13.9" style="enable-background:new 0 0 17.3 13.9;" xml:space="preserve">
<path d="M17.2,3.5C17,3,16.7,2.8,16.4,2.7c-0.3-0.1-0.5-0.1-0.6-0.1l0,0h-1.7l0.4-1.8C14.6,0.3,14.3,0,13.9,0H0.6
	C0.2,0-0.1,0.3,0,0.7l2.4,12.5c0.1,0.4,0.5,0.7,0.9,0.7h7.9c0.4,0,0.8-0.3,0.9-0.7l0.5-2.6h0.9c0,0,0.9,0,1.8-0.6l0,0l0,0
	c0.6-0.5,1.1-1.5,1.5-2.5c0.4-1,0.6-2.1,0.6-2.9C17.3,4.1,17.3,3.7,17.2,3.5 M0.6,0.6L0.6,0.6l13.3,0l0.1,0l0,0.1L12.1,10H2.4
	L0.6,0.6L0.6,0.6z M16.1,7.2c-0.3,1-0.8,1.8-1.3,2.2c-0.3,0.2-0.7,0.4-0.9,0.4c-0.1,0-0.2,0-0.3,0.1l-0.1,0l0,0h0h0h-0.8L14,3.2h1.9
	l0,0c0,0,0.2,0,0.4,0.1c0.1,0.1,0.2,0.2,0.3,0.3c0.1,0.2,0.1,0.4,0.1,0.8C16.6,5.2,16.4,6.2,16.1,7.2"/>
</svg>
