<?xml version="1.0" encoding="utf-8"?>
<!-- Generator: Adobe Illustrator 19.2.1, SVG Export Plug-In . SVG Version: 6.00 Build 0)  -->
<svg version="1.1" id="Calque_1" xmlns="http://www.w3.org/2000/svg" xmlns:xlink="http://www.w3.org/1999/xlink" x="0px" y="0px"
	 viewBox="-295 382.6 19.7 29.4" style="enable-background:new -295 382.6 19.7 29.4;" xml:space="preserve">
<path d="M-276.9,396.9c0-0.1-0.1-0.2-0.1-0.2l0,0c-0.1-0.1-0.2-0.1-0.3-0.1h-3.7v-1.1c0-1.2-0.8-2.3-1.8-2.3c0.4-0.4,1-1,1.1-1.9
	c0.1-0.7,0-1.5-0.4-2.2c0.2,0.2,0.5,0.4,0.8,0.7c0.6,0.5,1.2,0.8,1.5,0.8c0.1,0,0.1,0,0.2,0c0.2-0.1,0.3-0.3,0.3-0.4s0-0.1,0-0.2
	c-1.6-3.1-3-3.5-4-3.8c-0.2,0-0.3-0.1-0.4-0.1c-1-0.4-1.7-0.5-4.8-0.9c-2.8-0.4-4-2.2-4.2-2.5l0,0c-0.1-0.1-0.3-0.1-0.4,0
	c-0.2,0-0.2,0.2-0.1,0.4c0.2,0.4,1.6,2.3,4.7,2.6c3.1,0.4,3.8,0.5,4.6,0.8c0.2,0.1,0.3,0.1,0.5,0.2c0.9,0.3,2.1,0.6,3.4,3.2
	c-0.2-0.1-0.5-0.3-1-0.7c-1.3-1.1-1.4-1.2-1.9-1.5c-0.1,0-0.2-0.1-0.3-0.1c-0.1-0.1-0.3,0-0.4,0.1s0,0.3,0.1,0.4
	c1,1.1,1.4,2.1,1.2,3c-0.1,0.7-0.5,1.2-0.9,1.5c0-0.1,0-0.3,0-0.5l0,0l0,0c0.3-1.8-0.2-2.5-0.8-3.5c-0.1-0.1-0.1-0.2-0.2-0.3
	c-0.1-0.1-0.3-0.2-0.4-0.1s-0.2,0.3-0.1,0.4c0.1,0.1,0.2,0.2,0.2,0.3c0.6,0.9,1,1.5,0.8,3.1c-0.1,0.9-0.6,1.5-1.4,2
	c-0.3,0.2-0.6,0.3-0.9,0.3c0-0.4,0.2-0.5,0.3-0.6c0.2-0.1,0.6-0.4,0.8-1c0.7-1.9-0.5-3.2-1.6-3.9c-0.3-0.3-0.8-0.2-1.3,0.1
	c-0.8,0.5-1.6,1.6-1.4,2.6c0.1,0.7,0.6,1.3,1.5,1.9c0.4,0.3,0.9,0.5,1.1,0.6c0,0.1,0,0.2,0,0.3c-3.2-0.3-4.1-2.1-5-4.4
	c-0.9-2.5-2.9-3.2-3-3.3c-0.2,0-0.3,0.1-0.4,0.2c0,0.2,0,0.4,0.2,0.4c0.1,0,1.8,0.6,2.6,2.8c0.9,2.4,1.9,4.3,5.2,4.7
	c0,0.3,0,0.6,0,0.8v1.1h-5.1c-0.2,0-0.3,0.1-0.3,0.3l-0.7,14.8c0,0.1,0,0.2,0.1,0.2c0.1,0.1,0.1,0.1,0.2,0.1h14.8l0,0c0,0,0,0,0.1,0
	l0,0l0,0l0,0l0,0l0,0l0,0l2.4-1.9l0,0l0,0l0,0l0,0l0,0c0-0.1,0-0.1,0-0.2L-276.9,396.9z M-284.9,394.5c0.4-0.2,0.7-0.5,1-0.8h0.9
	c0.7,0,1.3,0.8,1.3,1.7v1.2h-4.7v-1.1c0-0.2,0-0.3,0-0.5l0,0l0,0C-286.3,395-285.6,394.9-284.9,394.5z M-288.6,391.4
	c-0.1-0.7,0.5-1.6,1.2-2c0.2-0.1,0.4-0.2,0.5-0.2h0.1c1.3,0.9,1.8,2,1.3,3.3c-0.2,0.5-0.3,0.6-0.5,0.7c-0.1,0.1-0.2,0.1-0.3,0.2
	C-287,393.1-288.5,392.3-288.6,391.4z M-290.2,400.3L-290.2,400.3c1.6-0.6,3.4-0.2,4.5,0.8c0.2,0.1,0.7,0.7,0.9,1
	c0.5,0.6,1.1,1.5,1.7,2.2v-2.9h0.8v5.8c-0.9-0.7-1.8-2.2-2.5-3c0,0-1.3-1.8-1.9-2.4c-0.4-0.5-1.2-1.1-1.7-1.3
	C-289,400.3-289.7,400.2-290.2,400.3z M-279.9,408.3c-1.6,0.5-3.4,0.1-4.5-0.9c-0.2-0.1-0.7-0.7-0.9-1c-0.5-0.6-1.1-1.5-1.7-2.2v2.9
	h-0.8v-5.8c0.9,0.7,1.8,2.2,2.5,3c0,0,1.3,1.8,1.9,2.4c0.4,0.5,1.2,1.1,1.7,1.3C-281.1,408.3-280.4,408.4-279.9,408.3L-279.9,408.3z
	 M-277.6,411l0.1-1.9l1.4,0.7L-277.6,411z M-277.5,408.5l0.4-8.4l1.1,9.1L-277.5,408.5z"/>
</svg>
