<?xml version="1.0" encoding="UTF-8"?>
<svg width="300px" height="128px" viewBox="0 0 300 128" version="1.1" xmlns="http://www.w3.org/2000/svg" xmlns:xlink="http://www.w3.org/1999/xlink">
    <title>D/script/wexp_L</title>
    <g id="D/script/wexp" stroke="none" stroke-width="1" fill="none" fill-rule="evenodd" opacity="0.500488281">
        <g id="Recurso-3" transform="translate(21.000000, 0.000000)" fill="#FFFFFF" fill-rule="nonzero">
            <path d="M111.937759,35.393604 L110.168614,38.4104372 C106.024076,45.4002584 101.798704,52.3461184 97.4924987,59.2480173 C96.7998737,60.4347785 95.8827113,61.4761482 94.791935,62.3143068 C93.750289,63.0561511 91.9039853,62.3143068 90.8402938,61.0284435 C88.0846166,57.6489309 88.9113198,53.8462923 89.7380229,50.2249934 C91.3197817,43.4110168 94.4392083,37.1080884 96.9027838,30.5798592 C97.6247712,28.6730448 98.3743155,26.7717255 99.283689,24.4362899 L91.4355201,33.3933721 C85.821287,39.8043716 80.2107281,46.2153712 74.6038435,52.6263707 C73.4629931,53.9397097 71.9363479,54.5441754 70.4262367,55.1541362 C69.6090791,55.4032962 68.7234121,55.1074705 68.2216949,54.4177871 C67.2020943,53.2088558 66.5076637,51.8625459 67.2131171,50.2744497 C68.4531718,47.4774222 69.8034537,44.7353461 71.0710652,41.9383186 C74.1243556,35.0584003 78.1311103,28.6620545 81.3938322,21.892039 C83.0472386,18.5015361 84.9376332,15.2044506 85.5934844,11.4182975 C85.8635407,9.86866729 85.2903599,8.81909509 83.692067,8.45092054 C80.2033796,7.6431346 76.8800329,8.50037682 73.6503791,9.65435674 C64.6172691,12.8855005 56.1242718,17.3090902 47.5596269,21.5733207 C42.64901,24.0186591 37.8375975,26.75524 32.3097089,27.71689 C28.8651124,28.3213556 25.8338674,26.1727549 25.6960835,22.9635918 C25.6960835,22.4690289 25.6299473,21.815107 26.2086395,21.699709 C26.7813514,21.6029686 27.3310752,21.965969 27.4652283,22.5294755 C27.8565345,25.0022896 29.6256793,24.5242122 31.1743699,24.2109891 C35.092943,23.4196886 38.6973688,21.7436701 42.2852606,20.0676517 C52.0403581,15.5176737 61.6356263,10.588531 71.9143025,7.25297949 C75.5462851,6.077019 79.2719607,5.19779621 83.1795111,6.153951 C87.8751851,7.2804552 90.0687042,10.9017541 89.1813761,15.6165863 C88.1287074,21.1886607 85.5659276,26.1892404 83.6314421,31.4316063 C82.3385451,34.7809798 80.8667447,38.0589432 79.2223585,41.2514258 C79.0690702,41.6584231 78.9366268,42.0729252 78.825541,42.493328 C81.3166732,39.7127859 83.3668971,37.3169038 85.5273481,35.0254294 C91.6229062,28.5576468 97.3326695,21.7216896 103.973852,15.7924309 C104.511127,15.306537 105.223077,15.0586823 105.946917,15.105538 C106.498052,15.105538 107.567255,14.9461789 107.787709,15.6550523 C107.853784,15.9221434 107.853784,16.2012422 107.787709,16.4683334 C107.148392,19.9577488 105.583167,23.1449315 104.480896,26.4914732 C102.122037,33.5197604 99.7907336,40.6634456 97.8397141,47.9115385 C97.5463927,48.8990228 97.3108449,49.9026605 97.1342607,50.9173814 C97.1342607,50.7690125 97.3932944,50.5272263 97.481476,50.400838 L97.8948276,49.785382 L98.67744,48.5984313 C99.2010186,47.8071308 99.719086,47.0103351 100.237153,46.2190346 C101.269614,44.6254433 102.296563,43.0300203 103.318,41.4327655 C105.357202,38.2400878 107.396403,35.0419149 109.490718,31.8822079 C113.97696,25.1176876 118.942691,18.6938661 123.820239,12.2260834 C124.233591,11.6765692 128.780458,5.67037846 129.469378,6.56059154 C130.158297,7.45080462 128.83006,9.43455104 128.33955,10.2148613 C127.308927,11.8359283 126.195633,13.4020439 125.120919,14.9956352 C120.590586,21.7216896 116.049229,28.3982876 111.937759,35.393604 Z M223.096268,5.68686389 C218.58798,12.9679276 215.380372,20.9248939 211.26339,28.4092779 C207.956577,34.3879929 205.515047,40.7843387 203.316017,47.2576165 C202.461757,49.7688966 201.734258,52.3406233 200.455624,54.6925443 C199.491137,56.4509898 197.562163,56.7697081 195.996938,55.4233982 C193.103477,52.9395938 192.982227,52.3790893 194.150634,48.6204118 C195.148189,45.4057535 196.41029,42.2900077 197.556651,39.1083203 C195.35047,41.7271268 192.812373,44.0490272 190.006096,46.0157143 C188.611723,47.043306 186.853601,48.0214413 185.326956,46.9169177 C183.497186,45.5980835 182.163438,43.6967642 182.361847,41.141523 C182.554744,38.7071749 183.568834,36.6025353 184.786843,34.547352 C182.057274,36.6942961 179.479212,39.0260877 177.070947,41.5261829 C173.42243,45.1969381 170.41323,49.4556735 166.990679,53.3022732 C166.489833,53.9108564 165.92438,54.4635907 165.304205,54.9508159 C164.080684,55.8245436 163.028015,56.2146987 161.517904,54.9508159 C158.018194,52.0109147 158.519727,48.5764507 159.693646,44.9331713 C160.40461,42.7076386 161.1762,40.5040864 161.991881,38.0972141 C160.569951,39.1962425 159.236203,40.372203 157.180468,40.1963585 C157.104004,40.1892248 157.039069,40.1375464 157.015142,40.0647855 C156.991216,39.9920246 157.012857,39.9120439 157.070241,39.8611548 C159.010238,38.1301849 160.724269,36.4981276 162.581596,35.0419149 C163.763414,34.1163308 164.707884,32.9241485 165.337273,31.5634897 C169.057437,23.8098437 172.920897,16.1221394 178.156683,9.2477162 C180.267532,6.47266926 182.664971,3.90643774 186.043432,2.55463269 C187.375127,2.12076127 188.784614,1.9764796 190.176948,2.13150673 C192.116944,2.22492415 193.120011,5.11536908 192.083876,7.23649406 C189.240017,13.0668402 185.029342,17.8640996 180.510032,22.4525435 C178.393672,24.6121345 176.145039,26.6178615 173.896406,28.6290836 C172.402829,29.9534129 171.906807,32.0031011 170.991923,33.7450612 C168.058691,39.4652726 165.678078,45.4508197 163.882275,51.6207596 C164.694509,51.233144 165.409941,50.669991 165.97659,49.9722169 C171.50999,44.2957347 176.911117,38.4653886 183.012187,33.4153527 C188.11019,29.1950833 193.31842,25.172639 199.728125,23.08998 C201.067384,22.6448735 202.334996,22.5404658 203.553005,23.28231 C204.578117,23.9142514 205.085162,23.6889506 205.641808,22.5899221 C209.086405,15.8254017 212.734922,9.16528906 217.144005,2.9832538 C217.414089,2.55768505 217.726109,2.16006314 218.075424,1.79630304 C218.869059,1.07094423 219.546956,-0.484181081 220.748431,0.147760301 C223.322234,1.4940702 224.231607,3.84599117 223.096268,5.68686389 Z M174.844359,25.8870075 L179.666795,20.7710299 C183.362701,16.8399052 186.595033,12.4997871 189.300642,7.83546459 C189.851778,6.8793098 190.540697,5.58245618 189.504562,4.82412653 C188.633768,4.18119486 187.851156,5.43958248 187.366157,6.09899957 C184.8144,9.39608504 182.207529,12.6931705 180.168328,16.3968965 C178.481853,19.4137297 176.266289,22.1283301 174.844359,25.8870075 Z M203.360108,24.787979 C203.20579,24.4307948 202.847552,24.3318822 202.257837,24.3923288 C201.630218,24.4626643 201.027975,24.6791352 200.499715,25.0242702 C196.808265,27.4527165 193.545519,30.4737623 190.843821,33.9648669 C188.660333,36.6021932 187.127561,39.713301 186.368602,43.0483374 C186.296954,43.3890362 186.093034,43.8286476 186.451272,44.0319679 C186.649681,44.1418708 187.068544,43.960531 187.344111,43.8231525 C188.501003,43.2393454 189.585003,42.5218788 190.573765,41.6855421 C192.722019,39.8514175 194.726634,37.8563736 196.570119,35.7178174 C198.416423,33.6021875 200.229658,31.4096257 201.894087,29.1236464 C202.40532,28.5444622 202.871465,27.9272132 203.28846,27.2772786 C203.686117,26.5065907 203.714458,25.5983084 203.365619,24.8044645 L203.360108,24.787979 Z M158.77325,34.2286338 C159.676293,33.5134909 160.385001,32.583923 160.834496,31.5250237 C161.203757,30.5963446 160.944723,30.1897041 159.99677,29.876481 C158.84824,29.5243581 157.603686,29.6762226 156.574219,30.2941118 C151.20616,33.1845567 147.17736,37.6246318 143.032821,41.9328235 C142.266743,42.724124 141.511687,43.5264148 140.486575,44.5979676 C143.170605,39.9490771 145.612135,35.6408854 148.141847,31.38215 C149.326788,29.3819181 148.946504,27.216832 146.995485,25.8870075 C145.271929,24.7414611 143.162968,24.3244668 141.131404,24.7275325 C136.044424,25.5682893 132.158919,28.8433942 127.815971,31.2008103 C127.602807,31.3937051 127.503064,31.6816949 127.551426,31.9646351 C128.069494,33.4867895 127.049893,34.4924006 126.333417,35.5584582 C124.69992,37.8407277 122.911913,40.009033 120.981892,42.0482215 L119.664678,43.5319099 C119.620587,43.5319099 119.455246,43.7682011 119.422178,43.8066671 L119.174167,44.0869193 L118.661611,44.6694044 C118.319907,45.0540644 117.983715,45.4442195 117.642011,45.8343746 C117.041273,46.5212674 116.446047,47.2136554 115.839798,47.895053 C115.784646,47.9573784 115.723754,48.0144111 115.657923,48.0654025 C115.59692,48.1150214 115.521609,48.1439021 115.44298,48.1478296 C115.284665,48.1460766 115.141262,48.0543129 115.07372,47.9115385 C114.944594,47.5776335 114.899188,47.2173432 114.941447,46.8619663 C114.941447,46.6256751 114.941447,46.3838889 114.985538,46.1475977 C115.038268,45.6697793 115.17443,45.2048423 115.387867,44.7738121 C117.787438,39.8613514 121.388598,35.6301523 125.85944,32.4701882 C126.537337,32.0031011 127.330972,31.4645771 126.851484,30.5908495 C126.371996,29.7171218 125.484668,30.1237624 124.735124,30.3930243 C123.041423,31.0230421 121.465443,31.9313011 120.072518,33.080149 C115.823264,36.4981276 111.601566,39.9325916 110.874067,45.9442775 C110.683348,47.444586 111.205941,48.9476677 112.287076,50.0083749 C113.36821,51.0690821 114.883959,51.5658279 116.385422,51.3514976 C117.636393,51.0888325 118.797053,50.5054747 119.75286,49.6589938 C124.398931,45.9168018 127.970289,41.2404355 131.244034,36.3277782 C131.92193,35.3001865 132.638406,34.1297212 132.313237,32.810887 C132.039026,32.0824727 132.33856,31.2635085 133.01869,30.882092 C136.121583,28.837899 139.378793,27.101434 143.02731,26.2167161 C143.253275,26.1617647 143.606002,26.1232987 143.738274,26.2496869 C143.991797,26.4914732 143.699695,26.7717255 143.589468,27.0135117 C142.173018,30.000931 140.514091,32.8679459 138.629249,35.585934 C135.21772,40.7293873 131.673919,45.7849183 129.39773,51.5877888 C128.843866,52.8485069 128.987933,54.3057552 129.778013,55.4343885 C131.43142,58.0116103 134.242211,58.5831051 135.763344,56.533417 C139.356748,51.6867013 143.14856,47.0158303 147.078155,42.4383766 C149.834786,39.1705874 152.859984,36.1377456 156.122288,33.3713915 C156.673423,32.9207899 157.037173,32.6295473 157.180468,33.6901098 C157.323763,34.7506723 157.841831,35.0419149 158.77325,34.2451192 L158.77325,34.2286338 Z M90.6198397,82.882625 C93.4526759,77.9369968 96.4453414,73.1397375 100.363914,68.9689243 C100.626846,68.6834447 100.924996,68.4323318 101.251243,68.221585 C102.050389,67.6720707 102.94874,66.8752751 103.841579,67.7105367 C104.640726,68.4578761 103.940784,69.4634872 103.554989,70.2437974 C102.166127,73.0902812 100.044256,75.4202216 97.9554525,77.7611523 C95.3706273,80.6625875 92.5488137,83.3387218 89.7214889,86.0038659 C89.5341028,86.1797105 89.3081373,86.3225842 88.7514905,86.7457102 C89.490012,85.1740994 89.9805225,83.9981389 90.6198397,82.882625 Z M104.299022,89.5262522 C103.652825,91.5126922 102.710887,93.3910261 101.504765,95.0983267 C99.9009607,97.4997039 98.9309623,100.395644 96.2469326,101.978245 L96.2469326,101.978245 C96.0866822,102.07479 95.883884,102.065589 95.7330903,101.954931 C95.5822966,101.844273 95.513199,101.653948 95.5580133,101.472692 C96.0507795,99.3938712 96.8930649,97.4132628 98.0491455,95.6148701 C99.6143702,93.2025025 101.124481,90.7241933 103.494364,88.9547574 C103.720329,88.784408 103.913227,88.4052432 104.227374,88.630544 C104.541521,88.8558449 104.392715,89.2130291 104.299022,89.5262522 L104.299022,89.5262522 Z M222.010531,101.725468 C221.734006,103.026604 220.981509,104.178475 219.899682,104.956612 C219.285042,105.408565 218.604827,105.764349 217.882527,106.01168 C217.100971,106.275587 216.290554,106.445311 215.468553,106.517233 L215.440997,106.517233 C215.215031,106.517233 214.983554,106.566689 214.757589,106.566689 C214.485368,106.582772 214.215608,106.507307 213.99151,106.352378 C213.913403,106.303143 213.848965,106.235115 213.804124,106.154553 C213.743572,106.03588 213.726047,105.899979 213.754522,105.769893 C213.771593,105.603075 213.808598,105.438888 213.864749,105.280826 C214.216607,104.57521 214.800073,104.010914 215.518156,103.681739 C217.441618,102.610186 219.607581,102.066167 221.745986,101.533138 C221.828657,101.533138 221.927861,101.500168 221.971952,101.566109 C222.005485,101.612032 222.019362,101.66935 222.010531,101.725468 L222.010531,101.725468 Z M130.340172,99.3021107 C128.686765,100.461586 127.204211,101.8024 125.479157,102.829992 C125.35287,102.913713 125.213032,102.975061 125.065805,103.011332 L125.00518,103.011332 C124.829743,103.032092 124.66307,102.929651 124.602852,102.76405 C124.583703,102.686444 124.583703,102.605366 124.602852,102.527759 C125.098873,100.192324 126.686144,98.5987324 128.323016,96.9721703 C131.470306,93.8054496 135.033706,91.0788347 138.915839,88.8668351 C139.125271,88.745942 139.307145,88.7239614 139.466975,88.9162914 C139.626804,89.1086214 139.466975,89.3064465 139.362259,89.4658057 C136.595559,92.9607163 134.065847,96.6699374 130.340172,99.3021107 Z M125.253191,91.2846978 C126.575917,92.488134 127.40262,91.5759404 128.262391,90.7351836 C128.945799,90.0537859 129.783525,89.1196117 129.215855,88.28435 C128.554493,87.3007195 127.353017,87.8117678 126.460178,88.28435 C124.264257,89.4468326 122.173187,90.7963301 120.210302,92.3177846 C118.554855,93.6805677 117.000284,95.1607797 115.558719,96.7468694 C116.903489,93.1530463 119.168656,90.3560187 120.739392,87.1743313 C121.499959,85.6356914 120.926778,84.5146823 119.989848,83.5640227 C118.959225,82.5199456 117.741215,82.9540619 116.633433,83.6959061 C113.026087,86.0580313 109.735065,88.868499 106.839756,92.0595129 C106.630325,92.3012992 106.476007,92.6584834 106.062655,92.6694737 C106.269815,91.9765244 106.435448,91.2719017 106.558677,90.559339 C106.668904,89.6691259 106.679927,88.7349517 105.858735,88.1085055 C104.017942,86.7072442 103.301466,86.7182344 101.449651,87.9821172 C99.0612188,89.6718548 96.7652109,91.4878496 94.5714809,93.4223082 C90.796203,96.6314714 87.8696738,100.648421 84.3864977,104.137836 C83.0803067,105.451175 81.6638886,106.654611 79.9774141,108.204241 C80.3080954,106.934864 80.4789474,106.121582 80.7269583,105.335777 C81.8292292,101.774925 83.6038854,98.4778393 85.1360419,95.0818413 C85.9076316,93.3508714 86.3154718,91.3451444 87.7539353,90.0427956 C92.0472805,86.1577299 96.4288073,82.3495962 100.308801,78.0578899 C103.119592,74.9421442 106.128791,71.963777 107.38538,67.7654881 C107.815266,66.3092754 107.446005,65.0179169 106.310666,64.8310821 C104.17226,64.4519172 102.25982,65.0014315 100.358403,66.0564988 C98.2408296,67.2536241 96.3780499,68.8514623 94.8746053,70.7603408 C89.7696011,77.0190087 85.5183004,83.9241427 82.2315581,91.2956881 C81.1788894,93.7080556 77.4642364,97.3788108 75.2541833,98.1811016 C76.477704,96.8897431 77.100487,95.3895692 77.9382129,94.032269 C79.0019044,92.3012992 79.9939482,90.4988925 80.2805386,88.3887578 C80.6001972,86.0038659 79.3325856,84.8169152 76.9737259,85.4158857 C75.8059828,85.7826512 74.7072186,86.3397015 73.7220267,87.0644284 C72.2615178,88.0095929 71.0324857,89.2350097 69.638113,90.290077 C70.3937843,88.6986345 70.9082758,87.0041403 71.1647582,85.2620217 C71.3025421,84.3333426 71.7158937,83.613479 70.9883949,82.7232659 C69.7703855,81.2340823 68.502774,81.261558 67.6264686,82.921091 C66.5682886,84.9213229 65.471529,86.9050693 64.5511328,88.9657477 C62.9748854,92.5046194 61.2057406,95.961064 59.3704596,99.3735475 C55.1597847,107.19863 51.5774043,115.309461 47.7966151,123.348854 C47.2918368,124.350606 47.1931586,125.507649 47.5210474,126.579998 C47.7232497,127.296284 48.3144996,127.836846 49.0476926,127.975764 C49.7421233,128.113143 50.1499635,127.646055 50.546781,127.091046 C52.4261529,124.508329 53.6772304,121.595904 54.9999555,118.73843 C57.0005771,114.441228 58.9515966,110.127541 61.2939223,106.000689 C61.5143765,105.616029 61.7844329,105.165428 62.2473866,105.451175 C64.0992018,106.616145 65.8352784,105.681971 67.5603324,105.181913 C69.5609541,104.599428 71.1978264,103.275099 72.9394144,102.192556 C74.7967409,101.038576 76.5603743,99.7307318 78.5885528,98.3459559 C77.8996335,99.9505375 77.271339,101.291352 76.7367377,102.665138 C75.529751,105.764398 74.4054347,108.814202 77.083953,111.869501 C78.0429287,112.96853 78.8641205,112.836647 79.8892324,112.419016 C80.3218548,112.214287 80.7124679,111.931041 81.0411055,111.583754 C83.6424649,109.12193 85.8084272,106.286437 88.012969,103.483914 C90.1127951,100.82976 92.1134167,98.0766939 94.9242075,95.8291806 C94.3069358,97.191976 93.7778458,98.4118976 93.2101763,99.6098386 C92.4000072,101.324323 92.7582452,102.94539 93.6510846,104.462049 C94.4777878,105.879796 96.004433,105.857816 97.7129529,104.533486 C99.6847641,102.902547 101.430593,101.01772 102.904649,98.928441 C105.059588,96.0984426 107.677482,93.6091431 110.163103,91.0429116 C111.835027,89.3051469 113.717926,87.7822144 115.76815,86.509419 C115.349287,87.1523507 115.150879,87.4435933 114.963493,87.7458261 C112.207815,92.257338 109.077366,96.538054 106.784642,101.307838 C105.528054,103.929021 105.02652,106.357874 107.09879,108.869154 C108.112879,110.09457 108.901003,110.27591 110.074921,109.127425 C110.796909,108.418552 110.962249,107.451407 111.524407,106.687582 C113.288041,104.2917 115.03514,101.884828 116.815308,99.4944406 C118.608015,96.9661181 120.701011,94.6633988 123.04865,92.6365029 C123.406888,92.3177846 124.817794,90.8890476 125.253191,91.2846978 Z M68.7618077,101.978245 C67.4059356,103.034314 65.8870864,103.863883 64.2645424,104.434574 C63.8297147,104.618443 63.3409634,104.630233 62.8977265,104.467545 C62.6001133,104.357642 62.3961932,104.181797 62.6717609,103.665254 C62.9473287,103.14871 63.2890326,102.533254 63.6031798,101.978245 C64.6400541,100.121328 65.7770591,98.3217794 67.0091969,96.5875103 C68.2375306,94.864885 69.6012956,93.2423685 71.0875993,91.7352995 C71.844492,90.9769698 72.6344528,90.2571062 73.4574817,89.5757085 C74.2015146,88.976738 74.9786156,88.4217286 75.7446938,87.8557289 C76.058841,87.6194378 76.7918512,86.855613 77.2162255,87.2457681 C77.4354846,87.4603974 77.5049119,87.7848807 77.3925888,88.0700395 C76.5598459,90.3158334 75.4803993,92.4628472 74.1739578,94.4718804 C72.5370855,97.0930634 71.1868037,99.9120715 68.7618077,101.978245 L68.7618077,101.978245 Z M257.156439,101.357294 C255.183374,99.2746349 252.328492,98.2470433 249.51219,97.6865388 C242.953678,96.38419 236.196758,97.191976 229.671314,98.159121 L229.268985,98.2195676 L228.767452,98.2910044 C227.808476,98.4338782 227.902169,98.7910624 227.957283,97.5326748 C228.078533,94.9059967 228.92177,92.449668 229.406769,89.9109122 C229.786678,87.9593571 231.149222,86.3411629 233.011195,85.6301962 C233.209604,85.5477691 233.518239,85.4048954 233.694603,85.5972254 C233.870966,85.7895554 233.738694,86.4434773 233.76625,86.740215 C233.765924,86.8201198 233.788902,86.898396 233.832387,86.9655159 C233.897737,87.0404746 233.991828,87.084388 234.09142,87.086409 C234.191512,87.0817091 234.291049,87.0688441 234.389033,87.047943 C234.684577,87.031398 234.980818,87.031398 235.276362,87.047943 C235.593115,87.0676268 235.903979,86.9561333 236.135575,86.7397802 C236.367172,86.5234271 236.498978,86.2213862 236.499882,85.9049534 C236.648689,84.3992843 235.298407,83.3716927 233.893012,83.4101587 C232.648262,83.5199984 231.438866,83.8808154 230.338188,84.4707212 C229.100967,85.0492419 228.018762,85.9117062 227.180182,86.9874964 C226.997454,87.2311026 226.773673,87.4412095 226.518819,87.6084475 C217.882527,93.0376483 210.954754,100.379159 203.806527,107.841562 C204.55056,104.637894 206.077205,102.022206 207.256635,99.2691398 C208.248679,96.9337043 209.88004,94.840055 209.891063,92.1254546 C209.932713,91.7706148 209.829415,91.4139895 209.604441,91.135925 C209.379467,90.8578605 209.051741,90.6817467 208.695099,90.6472613 C207.184988,90.2955722 206.17641,91.1967755 205.101696,91.9001538 C203.018404,93.2849297 201.199657,94.9994141 198.962047,96.9446945 C199.408466,96.1424037 199.634432,95.7742292 199.827329,95.3840741 C200.984714,93.026658 202.031871,90.7461739 201.756303,87.9106804 C201.634425,86.7356326 201.04623,85.6580046 200.122776,84.9179053 C199.199323,84.1778059 198.017335,83.8367263 196.840175,83.9706632 C193.505806,84.4762163 190.689504,86.1247591 188.115701,88.2678646 C186.462295,89.6526405 185.87258,91.6693578 184.85849,93.4278034 C182.524924,97.4372283 179.502831,101.006573 175.930096,103.972982 C175.713238,104.115481 175.480116,104.231699 175.235665,104.319176 C175.177723,104.195631 175.138709,104.064114 175.119927,103.929021 C175.230154,101.917798 175.511233,99.9835083 176.663106,98.2250627 C178.412368,95.5854226 180.574501,93.2422717 183.0673,91.2846978 C184.103435,90.4549313 184.946672,89.3888737 186.247352,88.9162914 C186.963828,88.6525246 187.900758,88.2898452 187.531497,87.4271078 C187.186121,86.4998583 186.206936,85.9694618 185.238774,86.1852056 C183.244371,86.7196016 181.35749,87.5933424 179.661283,88.7679226 C174.35936,92.2133769 169.977833,96.730384 165.331761,100.961644 C163.73898,102.417856 162.124153,103.852089 160.520349,105.297311 C160.484307,105.331425 160.429828,105.337274 160.387328,105.311593 C160.344829,105.285911 160.324821,105.235051 160.338474,105.187408 C160.88961,103.044303 162.168244,101.340809 163.342162,99.5933532 C164.416877,97.9887716 165.645909,96.4831026 166.18051,94.5762882 C166.599373,93.0925997 166.037215,91.6089112 164.736535,91.2792027 C163.287049,90.8945427 163.766537,92.3782312 163.364208,92.9826968 C161.754892,95.3456081 160.244781,97.7909465 158.811829,100.269256 C157.461547,102.604691 156.056152,104.984088 158.189046,107.676708 C158.933079,108.610882 159.704668,108.951581 160.691201,108.226222 C161.662698,107.483056 162.595341,106.690715 163.485458,105.85232 C166.186021,103.313565 168.859028,100.741838 171.724933,98.0107522 C171.460388,98.7471013 171.26749,99.2471592 171.113172,99.7527123 C170.358117,102.17607 171.702887,105.725932 173.675952,106.962339 C175.522256,108.116319 178.933784,107.022786 180.223441,105.594049 C182.516165,103.055293 185.078945,100.741838 186.787465,97.7359951 C188.049565,95.5104624 189.725016,93.4003277 189.289619,90.5923099 C189.234506,90.2406208 189.471494,90.0427956 189.680926,89.8394754 C191.287865,88.1894505 193.213276,86.8809567 195.341087,85.9928756 C196.327619,85.5752448 197.63381,84.849886 198.350286,85.5862351 C199.066762,86.3225842 198.267616,87.5919621 197.826708,88.5591072 C196.024495,92.5156097 193.555408,96.0819572 191.328821,99.7911783 C190.083255,101.873837 188.832177,103.989467 188.633768,106.445796 C188.523541,107.770125 188.931381,109.220843 190.491095,109.643969 C191.565809,109.935211 191.929558,108.792222 192.447626,108.154785 C194.139611,106.077621 195.754438,103.929021 197.407845,101.846362 C199.412778,99.4172481 201.587864,97.1328724 203.916754,95.0104044 C204.959624,94.1062172 206.050618,93.2587358 207.184988,92.4716486 C207.238066,92.4311621 207.310805,92.4278766 207.367338,92.463412 C207.42387,92.4989474 207.452261,92.5658006 207.43851,92.6310077 C207.327546,93.0597649 207.140924,93.4654054 206.887374,93.8289488 C204.642932,97.2136394 202.708017,100.792541 201.105964,104.522496 C200.626476,105.687466 200.130454,106.885407 200.350908,108.16028 C200.571362,109.435153 201.155566,110.704531 202.500336,111.177113 C203.415221,111.490337 204.153743,110.721017 204.732435,110.138532 C205.862263,109.039503 206.936977,107.869038 207.989645,106.709563 C211.390151,103.033312 214.421396,99.0163632 218.158094,95.6533361 C220.412586,93.5739015 222.806367,91.6498216 225.322855,89.8944268 C224.365701,92.750079 223.588916,95.6627138 222.997064,98.6152179 C222.914886,99.1483431 222.503772,99.5714699 221.971952,99.6702852 C219.676771,100.267989 217.415657,100.988903 215.198497,101.829876 C214.553962,102.076387 213.941482,102.399253 213.374239,102.791526 C212.961676,103.090297 212.608453,103.462979 212.332593,103.890555 C212.059925,104.300968 211.916025,104.78305 211.919241,105.27533 C211.923795,105.494844 211.964765,105.712092 212.040491,105.918262 C212.235791,106.439827 212.551027,106.908466 212.960887,107.286553 C213.131946,107.456509 213.316233,107.612693 213.512023,107.75364 L213.815147,107.95696 C214.399351,108.325135 215.033156,108.605387 215.650428,108.913115 C216.524869,109.394161 217.435083,109.807513 218.373037,110.149522 C219.486848,110.544226 220.710202,110.497009 221.790077,110.017638 C222.837455,109.461763 223.771925,108.716387 224.545754,107.819581 C226.232229,106.000689 226.838478,103.665254 227.301432,101.307838 C227.349647,100.744362 227.781567,100.288648 228.343078,100.208809 C230.183747,99.8202725 232.046317,99.543177 233.920568,99.3790427 C240.19249,98.6152179 247.054126,99.0273535 253.083548,101.027585 C253.755933,101.247391 254.417296,101.489177 255.067636,101.76943 C255.40934,101.917798 257.16195,102.615682 257.757177,103.214652 C257.799492,103.255264 257.862378,103.266018 257.915847,103.241785 C257.969317,103.217552 258.002541,103.16324 257.999848,103.104749 C257.924482,102.444061 257.627288,101.82818 257.156439,101.357294 L257.156439,101.357294 Z M47.4328657,102.253002 C47.3612181,101.59908 47.3501954,100.939663 47.2730364,100.291236 C47.2289456,99.9230618 47.4383771,99.4065184 47.063605,99.1922078 C46.6006512,98.9504215 46.2424131,99.4339941 45.8951978,99.6812755 C42.4746714,102.144702 39.2162726,104.824515 36.1401003,107.704183 C35.3795377,108.396462 34.5308393,108.985847 33.6158999,109.457134 C33.5046276,109.516888 33.3670386,109.495246 33.27962,109.40424 C33.1922013,109.313233 33.1764523,109.175242 33.2411278,109.066979 L34.2882852,107.363485 C29.9875859,107.90913 25.7639466,108.945339 21.7003515,110.451755 C16.1614402,112.424511 10.8760512,115.067674 5.22691286,116.749188 C2.60350811,117.534993 1.72720274,117.205285 0.376920889,114.875344 C-0.174214562,113.913694 -0.0419420541,112.704763 0.272205153,111.644201 C1.58941888,107.160164 4.07503977,103.231138 6.33469512,99.2031981 C9.88400742,92.8672988 14.0505914,86.9270499 18.0628575,80.8714029 L18.9612083,79.5031124 C13.5040275,79.9829141 8.18455284,81.4738001 3.27589336,83.8992264 C1.57839617,84.7564686 1.65555514,84.8334006 1.03277208,83.0694599 C0.674534032,82.0418682 1.03277208,81.4868588 1.94214557,81.0087814 C7.30469351,78.2612102 13.0034341,76.8324732 18.9777424,76.0631532 C23.6820289,75.4245195 28.445318,75.339678 33.1694802,75.8103767 C35.4841087,76.0742879 37.727951,76.7715616 39.7831056,77.86556 C40.130321,78.0414045 40.6924791,78.1128414 40.5602066,78.6843362 C40.4229624,79.2023264 39.9181421,79.5355202 39.3862881,79.4591513 C38.2840172,79.4591513 37.2313485,79.4206853 36.1621457,79.3217727 C32.5026063,78.9700836 28.8485783,78.4975013 25.1725048,79.1129573 C24.8363122,79.1734039 24.4890969,79.2008796 24.4394947,79.6240055 C24.1473929,82.0473634 22.7860883,84.0201195 21.5625676,86.0093611 C19.9863202,88.5700975 18.2998458,91.0648921 16.5692804,93.7025605 L21.6452379,92.9222503 C26.8894621,92.0730996 32.2185077,91.8700879 37.5124276,92.3177846 C37.8927111,92.3507555 38.5375395,92.2133769 38.5816304,92.6859591 C38.6257212,93.1585414 37.9919154,93.2794345 37.5840752,93.4278034 C34.8945342,94.4059387 32.0727207,94.7466376 29.2674412,95.1203073 C24.9136268,95.6711981 20.6215336,96.6297547 16.4480306,97.9832765 C15.5882593,98.2690239 14.8662719,98.2525384 14.5135452,97.0875683 C11.356564,102.487143 8.48669309,108.048587 5.91583217,113.74884 C8.2636692,112.875113 10.3249158,112.133268 12.364117,111.352958 C19.7052412,108.555931 27.1235243,106.094107 35.0598748,105.63801 C36.1621457,105.572068 36.7132812,104.791758 37.3856664,104.071894 C38.0580517,103.352031 38.8131073,102.780536 39.5075379,102.115624 C40.2019686,101.450711 41.0507172,100.664906 41.8443522,99.9670229 C43.0348048,98.9229458 44.2619997,97.9209982 45.525937,96.96118 C46.0892932,96.6356528 46.5760575,96.1934194 46.9533779,95.6643264 C47.3116159,94.9884238 47.1187185,94.3290067 47.0966731,93.6036479 C47.0949943,91.4871401 46.9106019,89.3747039 46.5455376,87.2897293 C46.2534358,85.8829728 46.7659918,85.5257885 48.3257051,85.7730699 C50.6955876,86.1522348 51.3569501,88.0315735 51.9246196,89.8504656 C52.3049031,91.0703873 52.5418913,91.0923678 53.4622875,90.3230479 C55.4959774,88.6195537 57.6288716,87.0259624 59.7066522,85.3774197 C60.066089,85.0010301 60.6055001,84.8549282 61.1065363,84.9982549 C61.6025582,85.1795946 61.6907398,85.6466817 61.6576717,86.0972834 C61.6246036,86.547885 61.6576717,87.0973993 61.0128432,87.5040398 C58.1524502,89.3064465 55.6558066,91.5924258 53.0324019,93.7135508 C52.8092916,93.9229888 52.7130111,94.2339365 52.7788796,94.532327 C53.0820041,98.3459559 53.048936,102.198051 53.9307527,105.951233 C54.0701372,106.481333 53.9495251,107.045931 53.6055828,107.473387 C52.9387089,108.242707 52.0789376,107.737154 51.3128593,107.594281 C48.3367279,107.061252 47.7194561,104.769777 47.4328657,102.253002 Z M165.045171,78.1513074 C167.376474,78.2337345 169.724311,78.1513074 172.028057,78.3985888 C175.412029,78.794239 178.928273,78.8766662 181.8052,81.14616 C181.959518,81.2670531 182.168949,81.4428977 182.356336,81.2670531 C182.543722,81.0912086 182.483097,80.7724903 182.356336,80.5307041 C181.661617,79.3274745 180.591284,78.3837982 179.308556,77.8435794 C175.164018,75.7609204 170.65573,75.4531924 166.130908,75.282843 C165.857629,75.2748588 165.58516,75.2491606 165.315227,75.205911 C165.228009,75.1863875 165.154559,75.1281209 165.115877,75.0477717 C165.077196,74.9674226 165.077543,74.8738373 165.116819,74.7937753 C165.320739,74.3816396 165.535682,73.969504 165.756136,73.5628634 C166.307271,72.6012135 166.439544,71.1889619 165.723068,70.925195 C165.006592,70.6614282 164.196422,70.2932537 163.325628,72.2275438 C163.165799,72.5792329 162.416255,73.7991545 161.776938,74.8816976 C161.589622,75.1197029 161.297233,75.251096 160.994325,75.2333867 C153.64769,75.3048236 146.411281,76.6071723 139.108737,77.173172 C136.72232,77.3545117 134.31937,77.4589194 131.988067,76.6786092 C131.016595,76.4405227 130.366905,75.5284876 130.461421,74.5355036 C130.474251,73.8202725 130.448494,73.104871 130.384262,72.3923981 C130.384262,72.2275438 130.163808,72.079175 130.042558,71.925311 C129.937843,72.0187284 129.783525,72.0956604 129.739434,72.2165535 C129.149719,73.8650963 128.637163,75.5850758 129.695343,77.211638 C131.255056,79.6349958 133.878461,80.1460441 136.424707,80.3108984 C141.666005,80.646102 146.863212,79.8602967 152.071442,79.3492484 C154.529507,79.1074622 156.987571,78.8821613 159.451146,78.6458702 C159.530268,78.6378337 159.606557,78.6776812 159.644976,78.7471119 C159.683396,78.8165427 159.676521,78.9021386 159.62751,78.9645885 C152.79343,87.8392435 145.380658,96.1753746 136.573514,103.253118 C137.146982,101.215801 138.013951,99.272247 139.147316,97.4832185 C140.883393,94.5762882 142.084868,91.3616298 144.311455,88.7294566 C144.552566,88.4525361 144.671035,88.0901238 144.63989,87.7247286 C144.608745,87.3593334 144.430637,87.0220518 144.146115,86.7896713 C143.550888,86.3720405 142.729697,85.7510894 142.029755,86.8391276 C141.84097,87.2630343 141.384644,87.5019007 140.927484,87.4161175 C139.599247,87.009477 138.414306,87.4161175 137.240387,87.9656318 C132.732099,90.2021548 129.017447,93.4992402 125.396487,96.884248 C123.346263,98.8020527 122.266037,101.164964 123.395865,104.071894 C123.53043,104.631784 124.020481,105.035222 124.59734,105.06102 C126.338928,105.214884 127.48529,104.08838 128.692277,103.14871 C129.68432,102.373895 130.599205,101.500168 131.585738,100.609955 C131.828237,100.533023 131.536136,101.318828 131.508579,101.39576 C131.230854,102.061205 131.10836,102.780856 131.150341,103.500399 C131.196711,104.113521 131.324592,104.71778 131.530624,105.297311 C131.874227,106.458795 132.968289,107.236673 134.181586,107.182145 C135.42164,107.088728 136.248344,106.132573 137.141183,105.396224 C138.122204,104.588438 139.075669,103.747681 139.974019,102.846478 C143.782365,98.9998778 148.185938,95.8291806 152.06042,91.4165812 C149.45906,96.1973552 146.984462,100.500052 145.204295,105.154437 C144.377592,107.319523 144.917704,109.034008 146.345145,110.64958 C146.568674,110.944221 146.982726,111.016227 147.293098,110.814434 C148.232749,110.343651 148.957775,109.534325 149.321277,108.550435 C150.324343,106.352378 151.16758,104.077389 152.214738,101.901313 C155.819164,94.3839582 159.500748,86.894079 163.116197,79.371229 C163.407549,78.575666 164.199185,78.0750199 165.045171,78.1513074 Z M168.644085,84.0750709 C169.713288,84.1245272 170.628173,84.503692 170.732889,85.7236137 C170.804536,86.6083316 168.682665,88.4986606 167.701644,88.3887578 C166.632441,88.2623695 166.351362,87.355671 166.202555,86.5588753 C166.261655,85.2311255 167.313876,84.1606854 168.644085,84.0750709 Z" id="World_Explorations_K-2"></path>
        </g>
    </g>
</svg>