<?xml version="1.0" encoding="UTF-8"?>
<svg width="42px" height="73px" viewBox="0 0 42 73" version="1.1" xmlns="http://www.w3.org/2000/svg" xmlns:xlink="http://www.w3.org/1999/xlink">
    <!-- Generator: Sketch 42 (36781) - http://www.bohemiancoding.com/sketch -->
    <title>Page 1</title>
    <desc>Created with Sketch.</desc>
    <defs>
        <polygon id="path-1" points="41.8402879 0.12234375 0.214391641 0.12234375 0.214391641 57.3876779 41.8402879 57.3876779 41.8402879 0.12234375"></polygon>
    </defs>
    <g id="WIREFRAME" stroke="none" stroke-width="1" fill="none" fill-rule="evenodd">
        <g id="RECYCLING-Desktop" transform="translate(-454.000000, -1314.000000)">
            <g id="P2-RECYCLING-PROCESS-Copy" transform="translate(0.000000, 807.000000)">
                <g id="WHY-RECYCLING-Copy">
                    <g id="Group-4" transform="translate(344.000000, 507.000000)">
                        <g id="Page-1" transform="translate(110.000000, 0.000000)">
                            <g id="Group-3">
                                <mask id="mask-2" fill="white">
                                    <use xlink:href="#path-1"></use>
                                </mask>
                                <g id="Clip-2"></g>
                                <path d="M39.30437,22.120519 C38.99007,27.2757351 36.86347,31.966744 32.80417,36.4606047 C31.26907,38.1608333 29.47847,39.9428574 27.33157,41.9059503 C24.52387,44.4744699 22.40427,47.4708431 21.02527,50.8209646 C21.00917,50.7867083 20.99377,50.7517529 20.97767,50.7174967 C20.60527,49.9058333 20.25317,49.1382137 19.84857,48.3754878 C18.55637,45.9370021 16.70557,43.6718949 14.18907,41.4501324 C10.89207,38.5404485 8.33847,35.6999762 6.38057,32.7679208 C3.40487,28.3104137 2.21627,23.3663279 2.84767,18.074786 C3.39647,13.468369 5.69177,9.5715458 9.66847,6.49267795 C12.96127,3.9437333 16.95477,2.59795205 21.02947,2.59795205 C22.32657,2.59795205 23.63207,2.73497705 24.92567,3.01252259 C30.29537,4.16395205 34.85727,7.61474491 37.44237,12.4777342 C38.92147,15.2601806 39.53047,18.4138529 39.30437,22.120519 M40.79327,13.9885047 C37.29187,4.08495295 26.54477,-1.76797205 16.32757,0.676106518 C9.80497,2.23231902 5.00227,6.04664759 2.05107,12.0107306 C0.70217,14.7365494 0.10647,17.7867538 0.23037,21.3333244 C0.37037,25.3392083 1.31257,28.8724958 3.11087,32.1366271 C5.05757,35.6699146 7.84357,39.0284253 11.87767,42.7064279 C13.96647,44.6107958 15.80117,46.3690503 17.11647,48.6138833 C18.34567,50.7112047 19.62387,53.2489637 19.78557,56.1607449 C19.82687,56.9031967 20.31827,57.3876779 21.01547,57.3876779 C21.03717,57.3876779 21.05957,57.3876779 21.08127,57.3862797 C21.76377,57.3576163 22.20267,56.8745333 22.25657,56.0943297 L22.26987,55.8776065 C22.28597,55.6056538 22.30137,55.3490815 22.34897,55.1092878 C23.18197,50.9523967 25.22737,47.3240306 28.42707,44.3255601 L29.06477,43.7285226 C31.24387,41.6920235 33.49717,39.5856137 35.43967,37.2219324 C38.22707,33.826369 39.96657,30.6908735 40.91227,27.3526369 C41.51077,25.239236 41.82437,22.9699342 41.81737,20.7901181 C41.94687,18.8934404 41.51707,16.0368887 40.79327,13.9885047" id="Fill-1" fill="#FFFFFF" mask="url(#mask-2)"></path>
                            </g>
                            <path d="M38.4467164,70.8826621 L34.975997,70.8826621 C26.4806419,70.8833724 17.9824628,70.8833724 9.48569565,70.8698771 C9.26118614,70.8698771 8.99925838,70.782513 8.88982765,70.6709994 C7.38956756,69.143192 5.90625159,67.598338 4.42293561,66.0541942 L3.54819573,65.1436182 L8.40550839,65.1436182 C16.4228983,65.1421976 24.4417002,65.1443284 32.4605021,65.1343845 C32.8071505,65.1343845 33.0154219,65.2245898 33.2554635,65.4795795 C34.4740277,66.7666027 35.7045939,68.0401307 36.9351602,69.3143689 L38.3598778,70.7896157 C38.388824,70.8194474 38.4177702,70.8506996 38.4467164,70.8826621 M38.9705719,68.3519426 C37.4088894,66.7275375 35.8479129,65.1038426 34.2728163,63.4950636 C33.9995925,63.2152141 33.5124492,63.0184672 33.0881404,63.0177569 C24.1769484,63 15.2657565,63 6.3538586,63 L1.34122489,63 C1.02775878,63 0.374704393,63 0.0951265127,63.6449322 C-0.2042195,64.3296399 0.280099756,64.8318062 0.486959147,65.0463101 C2.84995704,67.4925066 5.21154291,69.9394133 7.55759669,72.4012359 C7.95295935,72.8153278 8.38432825,73 8.95548609,73 L8.96325214,73 C13.0580797,72.9886356 17.1529072,72.9893458 21.2491467,72.9907664 L28.4398051,72.9914767 C32.5282786,72.9907664 36.6195761,72.9900561 40.7087556,72.9950281 C41.0363418,72.9950281 41.6449179,72.9950281 41.9082577,72.3721145 C42.1610074,71.7726401 41.8433052,71.3343987 41.5383112,71.0176149 C40.6805154,70.130478 39.8255437,69.2412103 38.9705719,68.3519426" id="Fill-4" fill="#FFFFFF"></path>
                            <path d="M29.6805184,20 C29.4932385,20.1121956 29.2757744,20.1913079 29.122795,20.3409021 C27.5079353,21.9188328 25.6810996,23.0781876 23.4865644,23.5183397 C22.2531245,23.764307 21.0210565,23.7837255 19.7471422,23.4406658 C19.7924186,22.7380047 19.8418111,22.1043871 19.8671934,21.4700503 C19.8740534,21.3147026 19.8033947,21.1557588 19.7677224,20.9989726 C19.6051388,21.0471591 19.4020809,21.0457207 19.2868317,21.1514435 C17.243904,23.0105826 15.2140103,24.8841056 13.1772566,26.7504367 C12.9591065,26.9496558 12.9405843,27.1352101 13.1312941,27.3631974 C14.9238295,29.5078599 16.7129348,31.6561184 18.5130162,33.794308 C18.6049411,33.9050652 18.7867329,33.9331141 18.9266782,34 C18.9849888,33.8532826 19.0817158,33.7101613 19.0954359,33.5598479 C19.1482584,32.9873626 19.1756987,32.4120004 19.212057,31.8280078 C19.3890467,31.8423919 19.5036098,31.8488647 19.6168009,31.8610911 C21.8909129,32.1156889 24.0051854,31.6072126 25.8683794,30.2313778 C29.0171499,27.9069146 30.3246786,24.6755368 29.9322828,20.6767698 C29.9096446,20.4451865 29.7676412,20.2251104 29.6805184,20" id="Fill-6" fill="#FFFFFF"></path>
                            <path d="M22.2632398,19.9777735 C22.2089406,20.4721187 22.1800726,20.9707813 22.1725119,21.4680048 C22.1690753,21.6529345 22.2536172,21.8393033 22.2982938,22.0249526 C22.4708142,21.9508368 22.679076,21.9184561 22.8110438,21.7975682 C24.7884994,19.9878474 26.7501464,18.1594178 28.731726,16.354734 C29.0753922,16.0410011 29.0843276,15.8287277 28.7846506,15.4768576 C27.4278562,13.8873255 26.0944312,12.2776454 24.7520708,10.6758806 C24.3616659,10.2110378 23.9788217,9.73971887 23.5705462,9.29286535 C23.4468264,9.15686645 23.2509366,9.09498336 23.0887262,9 C23.0289282,9.16190345 22.9327017,9.32020904 22.9175804,9.48642992 C22.8653431,10.0311451 22.8426611,10.5787385 22.8069198,11.1536757 C22.6832,11.1536757 22.6172161,11.1594322 22.5532941,11.1529561 C19.4080606,10.8097208 16.7150919,11.8063265 14.5472452,14.2161694 C12.4412584,16.557653 11.7140606,19.3790905 12.0982795,22.5380067 C12.1182121,22.703508 12.2137513,22.9380881 12.3347218,22.9906168 C12.442633,23.0366693 12.6522694,22.9035487 12.78355,22.8013696 C13.7045755,22.0889944 14.5637411,21.2708423 15.54319,20.6635245 C17.4835296,19.4589628 19.6080744,19.0725533 21.850153,19.4438519 C22.1738866,19.4978197 22.3003558,19.6266229 22.2632398,19.9777735 Z" id="Fill-8" fill="#FFFFFF"></path>
                            <path d="M24.6772572,67.574264 C24.4886456,67.4701373 24.2719429,67.3869591 24.0505584,67.3345876 C22.454717,66.9519679 20.7732646,66.897748 18.9118956,67.1706957 C18.414282,67.2427835 17.8879085,67.3869591 17.3468206,67.5989094 C17.1347998,67.6820876 17.0077211,67.8182534 17.0003639,67.9741355 C16.9923378,68.1411081 17.1174101,68.300687 17.3434765,68.4122074 C17.67455,68.5754831 17.946766,68.6672872 18.1995858,68.7036392 C18.8664148,68.7966755 19.5332437,68.8699956 20.1211501,68.9334574 C20.3298267,68.9562544 20.5271332,68.9778191 20.7103941,68.9993839 L20.7197578,69 L20.7291215,68.9993839 C21.0113701,68.9796676 21.2722159,68.9667287 21.5176785,68.9531738 C22.0467273,68.9248316 22.5042108,68.9014184 22.9570124,68.8311791 C23.523516,68.7430718 24.1000522,68.5878058 24.6678935,68.369078 C24.8705506,68.2920611 24.9875968,68.168218 24.998967,68.0191134 C25.0123437,67.8564538 24.8952975,67.6944103 24.6772572,67.574264" id="Fill-10" fill="#FFFFFF"></path>
                        </g>
                    </g>
                </g>
            </g>
        </g>
    </g>
</svg>